([('main.exe',
   'C:\\prog\\python a gyakban\\projekt\\pycode\\build\\main\\main.exe',
   'EXECUTABLE'),
  ('python311.dll',
   'C:\\Users\\Kovács '
   'Máté\\AppData\\Local\\Programs\\Python\\Python311\\python311.dll',
   'BINARY'),
  ('cv2\\opencv_videoio_ffmpeg490_64.dll',
   'C:\\Users\\Kovács '
   'Máté\\AppData\\Local\\Programs\\Python\\Python311\\Lib\\site-packages\\cv2\\opencv_videoio_ffmpeg490_64.dll',
   'BINARY'),
  ('pywin32_system32\\pywintypes311.dll',
   'C:\\Users\\Kovács '
   'Máté\\AppData\\Local\\Programs\\Python\\Python311\\Lib\\site-packages\\pywin32_system32\\pywintypes311.dll',
   'BINARY'),
  ('pywin32_system32\\pythoncom311.dll',
   'C:\\Users\\Kovács '
   'Máté\\AppData\\Local\\Programs\\Python\\Python311\\Lib\\site-packages\\pywin32_system32\\pythoncom311.dll',
   'BINARY'),
  ('_decimal.pyd',
   'C:\\Users\\Kovács '
   'Máté\\AppData\\Local\\Programs\\Python\\Python311\\DLLs\\_decimal.pyd',
   'EXTENSION'),
  ('_hashlib.pyd',
   'C:\\Users\\Kovács '
   'Máté\\AppData\\Local\\Programs\\Python\\Python311\\DLLs\\_hashlib.pyd',
   'EXTENSION'),
  ('_lzma.pyd',
   'C:\\Users\\Kovács '
   'Máté\\AppData\\Local\\Programs\\Python\\Python311\\DLLs\\_lzma.pyd',
   'EXTENSION'),
  ('_bz2.pyd',
   'C:\\Users\\Kovács '
   'Máté\\AppData\\Local\\Programs\\Python\\Python311\\DLLs\\_bz2.pyd',
   'EXTENSION'),
  ('unicodedata.pyd',
   'C:\\Users\\Kovács '
   'Máté\\AppData\\Local\\Programs\\Python\\Python311\\DLLs\\unicodedata.pyd',
   'EXTENSION'),
  ('select.pyd',
   'C:\\Users\\Kovács '
   'Máté\\AppData\\Local\\Programs\\Python\\Python311\\DLLs\\select.pyd',
   'EXTENSION'),
  ('_socket.pyd',
   'C:\\Users\\Kovács '
   'Máté\\AppData\\Local\\Programs\\Python\\Python311\\DLLs\\_socket.pyd',
   'EXTENSION'),
  ('win32\\win32api.pyd',
   'C:\\Users\\Kovács '
   'Máté\\AppData\\Local\\Programs\\Python\\Python311\\Lib\\site-packages\\win32\\win32api.pyd',
   'EXTENSION'),
  ('_ssl.pyd',
   'C:\\Users\\Kovács '
   'Máté\\AppData\\Local\\Programs\\Python\\Python311\\DLLs\\_ssl.pyd',
   'EXTENSION'),
  ('_queue.pyd',
   'C:\\Users\\Kovács '
   'Máté\\AppData\\Local\\Programs\\Python\\Python311\\DLLs\\_queue.pyd',
   'EXTENSION'),
  ('_ctypes.pyd',
   'C:\\Users\\Kovács '
   'Máté\\AppData\\Local\\Programs\\Python\\Python311\\DLLs\\_ctypes.pyd',
   'EXTENSION'),
  ('_multiprocessing.pyd',
   'C:\\Users\\Kovács '
   'Máté\\AppData\\Local\\Programs\\Python\\Python311\\DLLs\\_multiprocessing.pyd',
   'EXTENSION'),
  ('pyexpat.pyd',
   'C:\\Users\\Kovács '
   'Máté\\AppData\\Local\\Programs\\Python\\Python311\\DLLs\\pyexpat.pyd',
   'EXTENSION'),
  ('_overlapped.pyd',
   'C:\\Users\\Kovács '
   'Máté\\AppData\\Local\\Programs\\Python\\Python311\\DLLs\\_overlapped.pyd',
   'EXTENSION'),
  ('_asyncio.pyd',
   'C:\\Users\\Kovács '
   'Máté\\AppData\\Local\\Programs\\Python\\Python311\\DLLs\\_asyncio.pyd',
   'EXTENSION'),
  ('markupsafe\\_speedups.cp311-win_amd64.pyd',
   'C:\\Users\\Kovács '
   'Máté\\AppData\\Local\\Programs\\Python\\Python311\\Lib\\site-packages\\markupsafe\\_speedups.cp311-win_amd64.pyd',
   'EXTENSION'),
  ('win32com\\shell\\shell.pyd',
   'C:\\Users\\Kovács '
   'Máté\\AppData\\Local\\Programs\\Python\\Python311\\Lib\\site-packages\\win32comext\\shell\\shell.pyd',
   'EXTENSION'),
  ('win32\\win32trace.pyd',
   'C:\\Users\\Kovács '
   'Máté\\AppData\\Local\\Programs\\Python\\Python311\\Lib\\site-packages\\win32\\win32trace.pyd',
   'EXTENSION'),
  ('Pythonwin\\win32ui.pyd',
   'C:\\Users\\Kovács '
   'Máté\\AppData\\Local\\Programs\\Python\\Python311\\Lib\\site-packages\\Pythonwin\\win32ui.pyd',
   'EXTENSION'),
  ('win32\\_win32sysloader.pyd',
   'C:\\Users\\Kovács '
   'Máté\\AppData\\Local\\Programs\\Python\\Python311\\Lib\\site-packages\\win32\\_win32sysloader.pyd',
   'EXTENSION'),
  ('kivy\\_metrics.cp311-win_amd64.pyd',
   'C:\\Users\\Kovács '
   'Máté\\AppData\\Local\\Programs\\Python\\Python311\\Lib\\site-packages\\kivy\\_metrics.cp311-win_amd64.pyd',
   'EXTENSION'),
  ('kivy\\graphics\\instructions.cp311-win_amd64.pyd',
   'C:\\Users\\Kovács '
   'Máté\\AppData\\Local\\Programs\\Python\\Python311\\Lib\\site-packages\\kivy\\graphics\\instructions.cp311-win_amd64.pyd',
   'EXTENSION'),
  ('kivy\\core\\image\\_img_sdl2.cp311-win_amd64.pyd',
   'C:\\Users\\Kovács '
   'Máté\\AppData\\Local\\Programs\\Python\\Python311\\Lib\\site-packages\\kivy\\core\\image\\_img_sdl2.cp311-win_amd64.pyd',
   'EXTENSION'),
  ('kivy\\_event.cp311-win_amd64.pyd',
   'C:\\Users\\Kovács '
   'Máté\\AppData\\Local\\Programs\\Python\\Python311\\Lib\\site-packages\\kivy\\_event.cp311-win_amd64.pyd',
   'EXTENSION'),
  ('kivy\\lib\\gstplayer\\_gstplayer.cp311-win_amd64.pyd',
   'C:\\Users\\Kovács '
   'Máté\\AppData\\Local\\Programs\\Python\\Python311\\Lib\\site-packages\\kivy\\lib\\gstplayer\\_gstplayer.cp311-win_amd64.pyd',
   'EXTENSION'),
  ('kivy\\graphics\\cgl.cp311-win_amd64.pyd',
   'C:\\Users\\Kovács '
   'Máté\\AppData\\Local\\Programs\\Python\\Python311\\Lib\\site-packages\\kivy\\graphics\\cgl.cp311-win_amd64.pyd',
   'EXTENSION'),
  ('kivy\\graphics\\boxshadow.cp311-win_amd64.pyd',
   'C:\\Users\\Kovács '
   'Máté\\AppData\\Local\\Programs\\Python\\Python311\\Lib\\site-packages\\kivy\\graphics\\boxshadow.cp311-win_amd64.pyd',
   'EXTENSION'),
  ('kivy\\graphics\\vertex.cp311-win_amd64.pyd',
   'C:\\Users\\Kovács '
   'Máté\\AppData\\Local\\Programs\\Python\\Python311\\Lib\\site-packages\\kivy\\graphics\\vertex.cp311-win_amd64.pyd',
   'EXTENSION'),
  ('kivy\\core\\window\\_window_sdl2.cp311-win_amd64.pyd',
   'C:\\Users\\Kovács '
   'Máté\\AppData\\Local\\Programs\\Python\\Python311\\Lib\\site-packages\\kivy\\core\\window\\_window_sdl2.cp311-win_amd64.pyd',
   'EXTENSION'),
  ('kivy\\graphics\\cgl_backend\\cgl_gl.cp311-win_amd64.pyd',
   'C:\\Users\\Kovács '
   'Máté\\AppData\\Local\\Programs\\Python\\Python311\\Lib\\site-packages\\kivy\\graphics\\cgl_backend\\cgl_gl.cp311-win_amd64.pyd',
   'EXTENSION'),
  ('kivy\\graphics\\cgl_backend\\cgl_sdl2.cp311-win_amd64.pyd',
   'C:\\Users\\Kovács '
   'Máté\\AppData\\Local\\Programs\\Python\\Python311\\Lib\\site-packages\\kivy\\graphics\\cgl_backend\\cgl_sdl2.cp311-win_amd64.pyd',
   'EXTENSION'),
  ('kivy\\graphics\\gl_instructions.cp311-win_amd64.pyd',
   'C:\\Users\\Kovács '
   'Máté\\AppData\\Local\\Programs\\Python\\Python311\\Lib\\site-packages\\kivy\\graphics\\gl_instructions.cp311-win_amd64.pyd',
   'EXTENSION'),
  ('cv2\\cv2.pyd',
   'C:\\Users\\Kovács '
   'Máté\\AppData\\Local\\Programs\\Python\\Python311\\Lib\\site-packages\\cv2\\cv2.pyd',
   'EXTENSION'),
  ('numpy\\core\\_multiarray_umath.cp311-win_amd64.pyd',
   'C:\\Users\\Kovács '
   'Máté\\AppData\\Local\\Programs\\Python\\Python311\\Lib\\site-packages\\numpy\\core\\_multiarray_umath.cp311-win_amd64.pyd',
   'EXTENSION'),
  ('numpy\\linalg\\_umath_linalg.cp311-win_amd64.pyd',
   'C:\\Users\\Kovács '
   'Máté\\AppData\\Local\\Programs\\Python\\Python311\\Lib\\site-packages\\numpy\\linalg\\_umath_linalg.cp311-win_amd64.pyd',
   'EXTENSION'),
  ('psutil\\_psutil_windows.pyd',
   'C:\\Users\\Kovács '
   'Máté\\AppData\\Local\\Programs\\Python\\Python311\\Lib\\site-packages\\psutil\\_psutil_windows.pyd',
   'EXTENSION'),
  ('win32\\win32pdh.pyd',
   'C:\\Users\\Kovács '
   'Máté\\AppData\\Local\\Programs\\Python\\Python311\\Lib\\site-packages\\win32\\win32pdh.pyd',
   'EXTENSION'),
  ('numpy\\core\\_multiarray_tests.cp311-win_amd64.pyd',
   'C:\\Users\\Kovács '
   'Máté\\AppData\\Local\\Programs\\Python\\Python311\\Lib\\site-packages\\numpy\\core\\_multiarray_tests.cp311-win_amd64.pyd',
   'EXTENSION'),
  ('numpy\\random\\mtrand.cp311-win_amd64.pyd',
   'C:\\Users\\Kovács '
   'Máté\\AppData\\Local\\Programs\\Python\\Python311\\Lib\\site-packages\\numpy\\random\\mtrand.cp311-win_amd64.pyd',
   'EXTENSION'),
  ('numpy\\random\\_sfc64.cp311-win_amd64.pyd',
   'C:\\Users\\Kovács '
   'Máté\\AppData\\Local\\Programs\\Python\\Python311\\Lib\\site-packages\\numpy\\random\\_sfc64.cp311-win_amd64.pyd',
   'EXTENSION'),
  ('numpy\\random\\_philox.cp311-win_amd64.pyd',
   'C:\\Users\\Kovács '
   'Máté\\AppData\\Local\\Programs\\Python\\Python311\\Lib\\site-packages\\numpy\\random\\_philox.cp311-win_amd64.pyd',
   'EXTENSION'),
  ('numpy\\random\\_pcg64.cp311-win_amd64.pyd',
   'C:\\Users\\Kovács '
   'Máté\\AppData\\Local\\Programs\\Python\\Python311\\Lib\\site-packages\\numpy\\random\\_pcg64.cp311-win_amd64.pyd',
   'EXTENSION'),
  ('numpy\\random\\_mt19937.cp311-win_amd64.pyd',
   'C:\\Users\\Kovács '
   'Máté\\AppData\\Local\\Programs\\Python\\Python311\\Lib\\site-packages\\numpy\\random\\_mt19937.cp311-win_amd64.pyd',
   'EXTENSION'),
  ('numpy\\random\\bit_generator.cp311-win_amd64.pyd',
   'C:\\Users\\Kovács '
   'Máté\\AppData\\Local\\Programs\\Python\\Python311\\Lib\\site-packages\\numpy\\random\\bit_generator.cp311-win_amd64.pyd',
   'EXTENSION'),
  ('numpy\\random\\_generator.cp311-win_amd64.pyd',
   'C:\\Users\\Kovács '
   'Máté\\AppData\\Local\\Programs\\Python\\Python311\\Lib\\site-packages\\numpy\\random\\_generator.cp311-win_amd64.pyd',
   'EXTENSION'),
  ('numpy\\random\\_bounded_integers.cp311-win_amd64.pyd',
   'C:\\Users\\Kovács '
   'Máté\\AppData\\Local\\Programs\\Python\\Python311\\Lib\\site-packages\\numpy\\random\\_bounded_integers.cp311-win_amd64.pyd',
   'EXTENSION'),
  ('numpy\\random\\_common.cp311-win_amd64.pyd',
   'C:\\Users\\Kovács '
   'Máté\\AppData\\Local\\Programs\\Python\\Python311\\Lib\\site-packages\\numpy\\random\\_common.cp311-win_amd64.pyd',
   'EXTENSION'),
  ('numpy\\fft\\_pocketfft_internal.cp311-win_amd64.pyd',
   'C:\\Users\\Kovács '
   'Máté\\AppData\\Local\\Programs\\Python\\Python311\\Lib\\site-packages\\numpy\\fft\\_pocketfft_internal.cp311-win_amd64.pyd',
   'EXTENSION'),
  ('kivy\\core\\text\\_text_sdl2.cp311-win_amd64.pyd',
   'C:\\Users\\Kovács '
   'Máté\\AppData\\Local\\Programs\\Python\\Python311\\Lib\\site-packages\\kivy\\core\\text\\_text_sdl2.cp311-win_amd64.pyd',
   'EXTENSION'),
  ('kivy\\graphics\\cgl_backend\\cgl_debug.cp311-win_amd64.pyd',
   'C:\\Users\\Kovács '
   'Máté\\AppData\\Local\\Programs\\Python\\Python311\\Lib\\site-packages\\kivy\\graphics\\cgl_backend\\cgl_debug.cp311-win_amd64.pyd',
   'EXTENSION'),
  ('kivy\\graphics\\opengl.cp311-win_amd64.pyd',
   'C:\\Users\\Kovács '
   'Máté\\AppData\\Local\\Programs\\Python\\Python311\\Lib\\site-packages\\kivy\\graphics\\opengl.cp311-win_amd64.pyd',
   'EXTENSION'),
  ('kivy\\graphics\\scissor_instructions.cp311-win_amd64.pyd',
   'C:\\Users\\Kovács '
   'Máté\\AppData\\Local\\Programs\\Python\\Python311\\Lib\\site-packages\\kivy\\graphics\\scissor_instructions.cp311-win_amd64.pyd',
   'EXTENSION'),
  ('kivy\\_clock.cp311-win_amd64.pyd',
   'C:\\Users\\Kovács '
   'Máté\\AppData\\Local\\Programs\\Python\\Python311\\Lib\\site-packages\\kivy\\_clock.cp311-win_amd64.pyd',
   'EXTENSION'),
  ('kivy\\graphics\\buffer.cp311-win_amd64.pyd',
   'C:\\Users\\Kovács '
   'Máté\\AppData\\Local\\Programs\\Python\\Python311\\Lib\\site-packages\\kivy\\graphics\\buffer.cp311-win_amd64.pyd',
   'EXTENSION'),
  ('PIL\\_imagingft.cp311-win_amd64.pyd',
   'C:\\Users\\Kovács '
   'Máté\\AppData\\Local\\Programs\\Python\\Python311\\Lib\\site-packages\\PIL\\_imagingft.cp311-win_amd64.pyd',
   'EXTENSION'),
  ('PIL\\_webp.cp311-win_amd64.pyd',
   'C:\\Users\\Kovács '
   'Máté\\AppData\\Local\\Programs\\Python\\Python311\\Lib\\site-packages\\PIL\\_webp.cp311-win_amd64.pyd',
   'EXTENSION'),
  ('PIL\\_imagingtk.cp311-win_amd64.pyd',
   'C:\\Users\\Kovács '
   'Máté\\AppData\\Local\\Programs\\Python\\Python311\\Lib\\site-packages\\PIL\\_imagingtk.cp311-win_amd64.pyd',
   'EXTENSION'),
  ('PIL\\_imagingcms.cp311-win_amd64.pyd',
   'C:\\Users\\Kovács '
   'Máté\\AppData\\Local\\Programs\\Python\\Python311\\Lib\\site-packages\\PIL\\_imagingcms.cp311-win_amd64.pyd',
   'EXTENSION'),
  ('PIL\\_imagingmath.cp311-win_amd64.pyd',
   'C:\\Users\\Kovács '
   'Máté\\AppData\\Local\\Programs\\Python\\Python311\\Lib\\site-packages\\PIL\\_imagingmath.cp311-win_amd64.pyd',
   'EXTENSION'),
  ('_cffi_backend.cp311-win_amd64.pyd',
   'C:\\Users\\Kovács '
   'Máté\\AppData\\Local\\Programs\\Python\\Python311\\Lib\\site-packages\\_cffi_backend.cp311-win_amd64.pyd',
   'EXTENSION'),
  ('PIL\\_imaging.cp311-win_amd64.pyd',
   'C:\\Users\\Kovács '
   'Máté\\AppData\\Local\\Programs\\Python\\Python311\\Lib\\site-packages\\PIL\\_imaging.cp311-win_amd64.pyd',
   'EXTENSION'),
  ('_elementtree.pyd',
   'C:\\Users\\Kovács '
   'Máté\\AppData\\Local\\Programs\\Python\\Python311\\DLLs\\_elementtree.pyd',
   'EXTENSION'),
  ('kivy\\core\\window\\window_info.cp311-win_amd64.pyd',
   'C:\\Users\\Kovács '
   'Máté\\AppData\\Local\\Programs\\Python\\Python311\\Lib\\site-packages\\kivy\\core\\window\\window_info.cp311-win_amd64.pyd',
   'EXTENSION'),
  ('kivy\\graphics\\context.cp311-win_amd64.pyd',
   'C:\\Users\\Kovács '
   'Máté\\AppData\\Local\\Programs\\Python\\Python311\\Lib\\site-packages\\kivy\\graphics\\context.cp311-win_amd64.pyd',
   'EXTENSION'),
  ('kivy\\graphics\\cgl_backend\\cgl_mock.cp311-win_amd64.pyd',
   'C:\\Users\\Kovács '
   'Máté\\AppData\\Local\\Programs\\Python\\Python311\\Lib\\site-packages\\kivy\\graphics\\cgl_backend\\cgl_mock.cp311-win_amd64.pyd',
   'EXTENSION'),
  ('kivy\\graphics\\opengl_utils.cp311-win_amd64.pyd',
   'C:\\Users\\Kovács '
   'Máté\\AppData\\Local\\Programs\\Python\\Python311\\Lib\\site-packages\\kivy\\graphics\\opengl_utils.cp311-win_amd64.pyd',
   'EXTENSION'),
  ('kivy\\graphics\\fbo.cp311-win_amd64.pyd',
   'C:\\Users\\Kovács '
   'Máté\\AppData\\Local\\Programs\\Python\\Python311\\Lib\\site-packages\\kivy\\graphics\\fbo.cp311-win_amd64.pyd',
   'EXTENSION'),
  ('win32\\win32gui.pyd',
   'C:\\Users\\Kovács '
   'Máté\\AppData\\Local\\Programs\\Python\\Python311\\Lib\\site-packages\\win32\\win32gui.pyd',
   'EXTENSION'),
  ('kivy\\graphics\\vertex_instructions.cp311-win_amd64.pyd',
   'C:\\Users\\Kovács '
   'Máté\\AppData\\Local\\Programs\\Python\\Python311\\Lib\\site-packages\\kivy\\graphics\\vertex_instructions.cp311-win_amd64.pyd',
   'EXTENSION'),
  ('kivy\\core\\audio\\audio_sdl2.cp311-win_amd64.pyd',
   'C:\\Users\\Kovács '
   'Máté\\AppData\\Local\\Programs\\Python\\Python311\\Lib\\site-packages\\kivy\\core\\audio\\audio_sdl2.cp311-win_amd64.pyd',
   'EXTENSION'),
  ('kivy\\graphics\\stencil_instructions.cp311-win_amd64.pyd',
   'C:\\Users\\Kovács '
   'Máté\\AppData\\Local\\Programs\\Python\\Python311\\Lib\\site-packages\\kivy\\graphics\\stencil_instructions.cp311-win_amd64.pyd',
   'EXTENSION'),
  ('kivy\\graphics\\shader.cp311-win_amd64.pyd',
   'C:\\Users\\Kovács '
   'Máté\\AppData\\Local\\Programs\\Python\\Python311\\Lib\\site-packages\\kivy\\graphics\\shader.cp311-win_amd64.pyd',
   'EXTENSION'),
  ('kivy\\graphics\\svg.cp311-win_amd64.pyd',
   'C:\\Users\\Kovács '
   'Máté\\AppData\\Local\\Programs\\Python\\Python311\\Lib\\site-packages\\kivy\\graphics\\svg.cp311-win_amd64.pyd',
   'EXTENSION'),
  ('win32\\win32file.pyd',
   'C:\\Users\\Kovács '
   'Máté\\AppData\\Local\\Programs\\Python\\Python311\\Lib\\site-packages\\win32\\win32file.pyd',
   'EXTENSION'),
  ('kivy\\graphics\\cgl_backend\\cgl_glew.cp311-win_amd64.pyd',
   'C:\\Users\\Kovács '
   'Máté\\AppData\\Local\\Programs\\Python\\Python311\\Lib\\site-packages\\kivy\\graphics\\cgl_backend\\cgl_glew.cp311-win_amd64.pyd',
   'EXTENSION'),
  ('kivy\\graphics\\context_instructions.cp311-win_amd64.pyd',
   'C:\\Users\\Kovács '
   'Máté\\AppData\\Local\\Programs\\Python\\Python311\\Lib\\site-packages\\kivy\\graphics\\context_instructions.cp311-win_amd64.pyd',
   'EXTENSION'),
  ('kivy\\core\\text\\text_layout.cp311-win_amd64.pyd',
   'C:\\Users\\Kovács '
   'Máté\\AppData\\Local\\Programs\\Python\\Python311\\Lib\\site-packages\\kivy\\core\\text\\text_layout.cp311-win_amd64.pyd',
   'EXTENSION'),
  ('kivy\\graphics\\vbo.cp311-win_amd64.pyd',
   'C:\\Users\\Kovács '
   'Máté\\AppData\\Local\\Programs\\Python\\Python311\\Lib\\site-packages\\kivy\\graphics\\vbo.cp311-win_amd64.pyd',
   'EXTENSION'),
  ('kivy\\graphics\\texture.cp311-win_amd64.pyd',
   'C:\\Users\\Kovács '
   'Máté\\AppData\\Local\\Programs\\Python\\Python311\\Lib\\site-packages\\kivy\\graphics\\texture.cp311-win_amd64.pyd',
   'EXTENSION'),
  ('kivy\\core\\clipboard\\_clipboard_sdl2.cp311-win_amd64.pyd',
   'C:\\Users\\Kovács '
   'Máté\\AppData\\Local\\Programs\\Python\\Python311\\Lib\\site-packages\\kivy\\core\\clipboard\\_clipboard_sdl2.cp311-win_amd64.pyd',
   'EXTENSION'),
  ('kivy\\graphics\\compiler.cp311-win_amd64.pyd',
   'C:\\Users\\Kovács '
   'Máté\\AppData\\Local\\Programs\\Python\\Python311\\Lib\\site-packages\\kivy\\graphics\\compiler.cp311-win_amd64.pyd',
   'EXTENSION'),
  ('kivy\\graphics\\tesselator.cp311-win_amd64.pyd',
   'C:\\Users\\Kovács '
   'Máté\\AppData\\Local\\Programs\\Python\\Python311\\Lib\\site-packages\\kivy\\graphics\\tesselator.cp311-win_amd64.pyd',
   'EXTENSION'),
  ('kivy\\weakproxy.cp311-win_amd64.pyd',
   'C:\\Users\\Kovács '
   'Máté\\AppData\\Local\\Programs\\Python\\Python311\\Lib\\site-packages\\kivy\\weakproxy.cp311-win_amd64.pyd',
   'EXTENSION'),
  ('kivy\\graphics\\transformation.cp311-win_amd64.pyd',
   'C:\\Users\\Kovács '
   'Máté\\AppData\\Local\\Programs\\Python\\Python311\\Lib\\site-packages\\kivy\\graphics\\transformation.cp311-win_amd64.pyd',
   'EXTENSION'),
  ('kivy\\properties.cp311-win_amd64.pyd',
   'C:\\Users\\Kovács '
   'Máté\\AppData\\Local\\Programs\\Python\\Python311\\Lib\\site-packages\\kivy\\properties.cp311-win_amd64.pyd',
   'EXTENSION'),
  ('bcrypt\\_bcrypt.pyd',
   'C:\\Users\\Kovács '
   'Máté\\AppData\\Local\\Programs\\Python\\Python311\\Lib\\site-packages\\bcrypt\\_bcrypt.pyd',
   'EXTENSION'),
  ('_sqlite3.pyd',
   'C:\\Users\\Kovács '
   'Máté\\AppData\\Local\\Programs\\Python\\Python311\\DLLs\\_sqlite3.pyd',
   'EXTENSION'),
  ('api-ms-win-crt-heap-l1-1-0.dll',
   'C:\\Program Files\\Eclipse '
   'Adoptium\\jdk-17.0.6.10-hotspot\\bin\\api-ms-win-crt-heap-l1-1-0.dll',
   'BINARY'),
  ('api-ms-win-crt-time-l1-1-0.dll',
   'C:\\Program Files\\Eclipse '
   'Adoptium\\jdk-17.0.6.10-hotspot\\bin\\api-ms-win-crt-time-l1-1-0.dll',
   'BINARY'),
  ('api-ms-win-crt-convert-l1-1-0.dll',
   'C:\\Program Files\\Eclipse '
   'Adoptium\\jdk-17.0.6.10-hotspot\\bin\\api-ms-win-crt-convert-l1-1-0.dll',
   'BINARY'),
  ('api-ms-win-crt-filesystem-l1-1-0.dll',
   'C:\\Program Files\\Eclipse '
   'Adoptium\\jdk-17.0.6.10-hotspot\\bin\\api-ms-win-crt-filesystem-l1-1-0.dll',
   'BINARY'),
  ('api-ms-win-crt-runtime-l1-1-0.dll',
   'C:\\Program Files\\Eclipse '
   'Adoptium\\jdk-17.0.6.10-hotspot\\bin\\api-ms-win-crt-runtime-l1-1-0.dll',
   'BINARY'),
  ('api-ms-win-crt-stdio-l1-1-0.dll',
   'C:\\Program Files\\Eclipse '
   'Adoptium\\jdk-17.0.6.10-hotspot\\bin\\api-ms-win-crt-stdio-l1-1-0.dll',
   'BINARY'),
  ('api-ms-win-crt-locale-l1-1-0.dll',
   'C:\\Program Files\\Eclipse '
   'Adoptium\\jdk-17.0.6.10-hotspot\\bin\\api-ms-win-crt-locale-l1-1-0.dll',
   'BINARY'),
  ('api-ms-win-crt-environment-l1-1-0.dll',
   'C:\\Program Files\\Eclipse '
   'Adoptium\\jdk-17.0.6.10-hotspot\\bin\\api-ms-win-crt-environment-l1-1-0.dll',
   'BINARY'),
  ('VCRUNTIME140.dll',
   'C:\\Users\\Kovács '
   'Máté\\AppData\\Local\\Programs\\Python\\Python311\\VCRUNTIME140.dll',
   'BINARY'),
  ('api-ms-win-crt-process-l1-1-0.dll',
   'C:\\Program Files\\Eclipse '
   'Adoptium\\jdk-17.0.6.10-hotspot\\bin\\api-ms-win-crt-process-l1-1-0.dll',
   'BINARY'),
  ('api-ms-win-crt-string-l1-1-0.dll',
   'C:\\Program Files\\Eclipse '
   'Adoptium\\jdk-17.0.6.10-hotspot\\bin\\api-ms-win-crt-string-l1-1-0.dll',
   'BINARY'),
  ('api-ms-win-crt-math-l1-1-0.dll',
   'C:\\Program Files\\Eclipse '
   'Adoptium\\jdk-17.0.6.10-hotspot\\bin\\api-ms-win-crt-math-l1-1-0.dll',
   'BINARY'),
  ('api-ms-win-crt-conio-l1-1-0.dll',
   'C:\\Program Files\\Eclipse '
   'Adoptium\\jdk-17.0.6.10-hotspot\\bin\\api-ms-win-crt-conio-l1-1-0.dll',
   'BINARY'),
  ('VCRUNTIME140_1.dll',
   'C:\\Users\\Kovács '
   'Máté\\AppData\\Local\\Programs\\Python\\Python311\\VCRUNTIME140_1.dll',
   'BINARY'),
  ('api-ms-win-crt-utility-l1-1-0.dll',
   'C:\\Program Files\\Eclipse '
   'Adoptium\\jdk-17.0.6.10-hotspot\\bin\\api-ms-win-crt-utility-l1-1-0.dll',
   'BINARY'),
  ('libcrypto-3.dll',
   'C:\\Users\\Kovács '
   'Máté\\AppData\\Local\\Programs\\Python\\Python311\\DLLs\\libcrypto-3.dll',
   'BINARY'),
  ('libssl-3.dll',
   'C:\\Users\\Kovács '
   'Máté\\AppData\\Local\\Programs\\Python\\Python311\\DLLs\\libssl-3.dll',
   'BINARY'),
  ('libffi-8.dll',
   'C:\\Users\\Kovács '
   'Máté\\AppData\\Local\\Programs\\Python\\Python311\\DLLs\\libffi-8.dll',
   'BINARY'),
  ('Pythonwin\\mfc140u.dll',
   'C:\\Users\\Kovács '
   'Máté\\AppData\\Local\\Programs\\Python\\Python311\\Lib\\site-packages\\Pythonwin\\mfc140u.dll',
   'BINARY'),
  ('SDL2_image.dll',
   'C:\\Users\\Kovács '
   'Máté\\AppData\\Local\\Programs\\Python\\Python311\\share\\sdl2\\bin\\SDL2_image.dll',
   'BINARY'),
  ('SDL2.dll',
   'C:\\Users\\Kovács '
   'Máté\\AppData\\Local\\Programs\\Python\\Python311\\share\\sdl2\\bin\\SDL2.dll',
   'BINARY'),
  ('glew32.dll',
   'C:\\Users\\Kovács '
   'Máté\\AppData\\Local\\Programs\\Python\\Python311\\share\\glew\\bin\\glew32.dll',
   'BINARY'),
  ('python3.dll',
   'C:\\Users\\Kovács '
   'Máté\\AppData\\Local\\Programs\\Python\\Python311\\python3.dll',
   'BINARY'),
  ('numpy.libs\\libopenblas64__v0.3.23-293-gc2f4bdbb-gcc_10_3_0-2bde3a66a51006b2b53eb373ff767a3f.dll',
   'C:\\Users\\Kovács '
   'Máté\\AppData\\Local\\Programs\\Python\\Python311\\Lib\\site-packages\\numpy.libs\\libopenblas64__v0.3.23-293-gc2f4bdbb-gcc_10_3_0-2bde3a66a51006b2b53eb373ff767a3f.dll',
   'BINARY'),
  ('SDL2_ttf.dll',
   'C:\\Users\\Kovács '
   'Máté\\AppData\\Local\\Programs\\Python\\Python311\\share\\sdl2\\bin\\SDL2_ttf.dll',
   'BINARY'),
  ('SDL2_mixer.dll',
   'C:\\Users\\Kovács '
   'Máté\\AppData\\Local\\Programs\\Python\\Python311\\share\\sdl2\\bin\\SDL2_mixer.dll',
   'BINARY'),
  ('sqlite3.dll',
   'C:\\Users\\Kovács '
   'Máté\\AppData\\Local\\Programs\\Python\\Python311\\DLLs\\sqlite3.dll',
   'BINARY'),
  ('ucrtbase.dll',
   'C:\\Program Files\\Eclipse '
   'Adoptium\\jdk-17.0.6.10-hotspot\\bin\\ucrtbase.dll',
   'BINARY'),
  ('api-ms-win-crt-multibyte-l1-1-0.dll',
   'C:\\Program Files\\Eclipse '
   'Adoptium\\jdk-17.0.6.10-hotspot\\bin\\api-ms-win-crt-multibyte-l1-1-0.dll',
   'BINARY'),
  ('api-ms-win-crt-private-l1-1-0.dll',
   'C:\\Program Files\\Eclipse '
   'Adoptium\\jdk-17.0.6.10-hotspot\\bin\\api-ms-win-crt-private-l1-1-0.dll',
   'BINARY'),
  ('api-ms-win-core-util-l1-1-0.dll',
   'C:\\Program Files\\Eclipse '
   'Adoptium\\jdk-17.0.6.10-hotspot\\bin\\api-ms-win-core-util-l1-1-0.dll',
   'BINARY'),
  ('api-ms-win-core-localization-l1-2-0.dll',
   'C:\\Program Files\\Eclipse '
   'Adoptium\\jdk-17.0.6.10-hotspot\\bin\\api-ms-win-core-localization-l1-2-0.dll',
   'BINARY'),
  ('api-ms-win-core-profile-l1-1-0.dll',
   'C:\\Program Files\\Eclipse '
   'Adoptium\\jdk-17.0.6.10-hotspot\\bin\\api-ms-win-core-profile-l1-1-0.dll',
   'BINARY'),
  ('api-ms-win-core-processthreads-l1-1-1.dll',
   'C:\\Program Files\\Eclipse '
   'Adoptium\\jdk-17.0.6.10-hotspot\\bin\\api-ms-win-core-processthreads-l1-1-1.dll',
   'BINARY'),
  ('api-ms-win-core-processenvironment-l1-1-0.dll',
   'C:\\Program Files\\Eclipse '
   'Adoptium\\jdk-17.0.6.10-hotspot\\bin\\api-ms-win-core-processenvironment-l1-1-0.dll',
   'BINARY'),
  ('api-ms-win-core-namedpipe-l1-1-0.dll',
   'C:\\Program Files\\Eclipse '
   'Adoptium\\jdk-17.0.6.10-hotspot\\bin\\api-ms-win-core-namedpipe-l1-1-0.dll',
   'BINARY'),
  ('api-ms-win-core-memory-l1-1-0.dll',
   'C:\\Program Files\\Eclipse '
   'Adoptium\\jdk-17.0.6.10-hotspot\\bin\\api-ms-win-core-memory-l1-1-0.dll',
   'BINARY'),
  ('api-ms-win-core-libraryloader-l1-1-0.dll',
   'C:\\Program Files\\Eclipse '
   'Adoptium\\jdk-17.0.6.10-hotspot\\bin\\api-ms-win-core-libraryloader-l1-1-0.dll',
   'BINARY'),
  ('api-ms-win-core-debug-l1-1-0.dll',
   'C:\\Program Files\\Eclipse '
   'Adoptium\\jdk-17.0.6.10-hotspot\\bin\\api-ms-win-core-debug-l1-1-0.dll',
   'BINARY'),
  ('api-ms-win-core-heap-l1-1-0.dll',
   'C:\\Program Files\\Eclipse '
   'Adoptium\\jdk-17.0.6.10-hotspot\\bin\\api-ms-win-core-heap-l1-1-0.dll',
   'BINARY'),
  ('api-ms-win-core-file-l1-1-0.dll',
   'C:\\Program Files\\Eclipse '
   'Adoptium\\jdk-17.0.6.10-hotspot\\bin\\api-ms-win-core-file-l1-1-0.dll',
   'BINARY'),
  ('api-ms-win-core-file-l1-2-0.dll',
   'C:\\Program Files\\Eclipse '
   'Adoptium\\jdk-17.0.6.10-hotspot\\bin\\api-ms-win-core-file-l1-2-0.dll',
   'BINARY'),
  ('api-ms-win-core-sysinfo-l1-1-0.dll',
   'C:\\Program Files\\Eclipse '
   'Adoptium\\jdk-17.0.6.10-hotspot\\bin\\api-ms-win-core-sysinfo-l1-1-0.dll',
   'BINARY'),
  ('api-ms-win-core-synch-l1-1-0.dll',
   'C:\\Program Files\\Eclipse '
   'Adoptium\\jdk-17.0.6.10-hotspot\\bin\\api-ms-win-core-synch-l1-1-0.dll',
   'BINARY'),
  ('api-ms-win-core-processthreads-l1-1-0.dll',
   'C:\\Program Files\\Eclipse '
   'Adoptium\\jdk-17.0.6.10-hotspot\\bin\\api-ms-win-core-processthreads-l1-1-0.dll',
   'BINARY'),
  ('api-ms-win-core-interlocked-l1-1-0.dll',
   'C:\\Program Files\\Eclipse '
   'Adoptium\\jdk-17.0.6.10-hotspot\\bin\\api-ms-win-core-interlocked-l1-1-0.dll',
   'BINARY'),
  ('api-ms-win-core-timezone-l1-1-0.dll',
   'C:\\Program Files\\Eclipse '
   'Adoptium\\jdk-17.0.6.10-hotspot\\bin\\api-ms-win-core-timezone-l1-1-0.dll',
   'BINARY'),
  ('api-ms-win-core-synch-l1-2-0.dll',
   'C:\\Program Files\\Eclipse '
   'Adoptium\\jdk-17.0.6.10-hotspot\\bin\\api-ms-win-core-synch-l1-2-0.dll',
   'BINARY'),
  ('api-ms-win-core-file-l2-1-0.dll',
   'C:\\Program Files\\Eclipse '
   'Adoptium\\jdk-17.0.6.10-hotspot\\bin\\api-ms-win-core-file-l2-1-0.dll',
   'BINARY'),
  ('api-ms-win-core-console-l1-1-0.dll',
   'C:\\Program Files\\Eclipse '
   'Adoptium\\jdk-17.0.6.10-hotspot\\bin\\api-ms-win-core-console-l1-1-0.dll',
   'BINARY'),
  ('api-ms-win-core-rtlsupport-l1-1-0.dll',
   'C:\\Program Files\\Eclipse '
   'Adoptium\\jdk-17.0.6.10-hotspot\\bin\\api-ms-win-core-rtlsupport-l1-1-0.dll',
   'BINARY'),
  ('api-ms-win-core-datetime-l1-1-0.dll',
   'C:\\Program Files\\Eclipse '
   'Adoptium\\jdk-17.0.6.10-hotspot\\bin\\api-ms-win-core-datetime-l1-1-0.dll',
   'BINARY'),
  ('api-ms-win-core-string-l1-1-0.dll',
   'C:\\Program Files\\Eclipse '
   'Adoptium\\jdk-17.0.6.10-hotspot\\bin\\api-ms-win-core-string-l1-1-0.dll',
   'BINARY'),
  ('api-ms-win-core-errorhandling-l1-1-0.dll',
   'C:\\Program Files\\Eclipse '
   'Adoptium\\jdk-17.0.6.10-hotspot\\bin\\api-ms-win-core-errorhandling-l1-1-0.dll',
   'BINARY'),
  ('api-ms-win-core-handle-l1-1-0.dll',
   'C:\\Program Files\\Eclipse '
   'Adoptium\\jdk-17.0.6.10-hotspot\\bin\\api-ms-win-core-handle-l1-1-0.dll',
   'BINARY'),
  ('base_library.zip',
   'C:\\prog\\python a gyakban\\projekt\\pycode\\build\\main\\base_library.zip',
   'DATA'),
  ('kivy_install\\modules\\touchring.py',
   'C:\\Users\\Kovács '
   'Máté\\AppData\\Local\\Programs\\Python\\Python311\\Lib\\site-packages\\kivy\\modules\\touchring.py',
   'DATA'),
  ('kivy_install\\data\\fonts\\Roboto-Regular.ttf',
   'C:\\Users\\Kovács '
   'Máté\\AppData\\Local\\Programs\\Python\\Python311\\Lib\\site-packages\\kivy\\data\\fonts\\Roboto-Regular.ttf',
   'DATA'),
  ('kivy_install\\data\\images\\defaultshape.png',
   'C:\\Users\\Kovács '
   'Máté\\AppData\\Local\\Programs\\Python\\Python311\\Lib\\site-packages\\kivy\\data\\images\\defaultshape.png',
   'DATA'),
  ('kivy_install\\modules\\__pycache__\\joycursor.cpython-311.pyc',
   'C:\\Users\\Kovács '
   'Máté\\AppData\\Local\\Programs\\Python\\Python311\\Lib\\site-packages\\kivy\\modules\\__pycache__\\joycursor.cpython-311.pyc',
   'DATA'),
  ('kivy_install\\modules\\__pycache__\\monitor.cpython-311.pyc',
   'C:\\Users\\Kovács '
   'Máté\\AppData\\Local\\Programs\\Python\\Python311\\Lib\\site-packages\\kivy\\modules\\__pycache__\\monitor.cpython-311.pyc',
   'DATA'),
  ('kivy_install\\modules\\__pycache__\\recorder.cpython-311.pyc',
   'C:\\Users\\Kovács '
   'Máté\\AppData\\Local\\Programs\\Python\\Python311\\Lib\\site-packages\\kivy\\modules\\__pycache__\\recorder.cpython-311.pyc',
   'DATA'),
  ('kivy_install\\data\\glsl\\header.fs',
   'C:\\Users\\Kovács '
   'Máté\\AppData\\Local\\Programs\\Python\\Python311\\Lib\\site-packages\\kivy\\data\\glsl\\header.fs',
   'DATA'),
  ('kivy_install\\modules\\console.py',
   'C:\\Users\\Kovács '
   'Máté\\AppData\\Local\\Programs\\Python\\Python311\\Lib\\site-packages\\kivy\\modules\\console.py',
   'DATA'),
  ('kivy_install\\modules\\inspector.py',
   'C:\\Users\\Kovács '
   'Máté\\AppData\\Local\\Programs\\Python\\Python311\\Lib\\site-packages\\kivy\\modules\\inspector.py',
   'DATA'),
  ('kivy_install\\data\\keyboards\\qwertz.json',
   'C:\\Users\\Kovács '
   'Máté\\AppData\\Local\\Programs\\Python\\Python311\\Lib\\site-packages\\kivy\\data\\keyboards\\qwertz.json',
   'DATA'),
  ('kivy_install\\data\\keyboards\\azerty.json',
   'C:\\Users\\Kovács '
   'Máté\\AppData\\Local\\Programs\\Python\\Python311\\Lib\\site-packages\\kivy\\data\\keyboards\\azerty.json',
   'DATA'),
  ('kivy_install\\data\\logo\\kivy-icon-128.png',
   'C:\\Users\\Kovács '
   'Máté\\AppData\\Local\\Programs\\Python\\Python311\\Lib\\site-packages\\kivy\\data\\logo\\kivy-icon-128.png',
   'DATA'),
  ('kivy_install\\modules\\__pycache__\\cursor.cpython-311.pyc',
   'C:\\Users\\Kovács '
   'Máté\\AppData\\Local\\Programs\\Python\\Python311\\Lib\\site-packages\\kivy\\modules\\__pycache__\\cursor.cpython-311.pyc',
   'DATA'),
  ('kivy_install\\data\\keyboards\\qwerty.json',
   'C:\\Users\\Kovács '
   'Máté\\AppData\\Local\\Programs\\Python\\Python311\\Lib\\site-packages\\kivy\\data\\keyboards\\qwerty.json',
   'DATA'),
  ('kivy_install\\data\\images\\defaulttheme.atlas',
   'C:\\Users\\Kovács '
   'Máté\\AppData\\Local\\Programs\\Python\\Python311\\Lib\\site-packages\\kivy\\data\\images\\defaulttheme.atlas',
   'DATA'),
  ('kivy_install\\data\\logo\\kivy-icon-48.png',
   'C:\\Users\\Kovács '
   'Máté\\AppData\\Local\\Programs\\Python\\Python311\\Lib\\site-packages\\kivy\\data\\logo\\kivy-icon-48.png',
   'DATA'),
  ('kivy_install\\modules\\__pycache__\\keybinding.cpython-311.pyc',
   'C:\\Users\\Kovács '
   'Máté\\AppData\\Local\\Programs\\Python\\Python311\\Lib\\site-packages\\kivy\\modules\\__pycache__\\keybinding.cpython-311.pyc',
   'DATA'),
  ('kivy_install\\modules\\monitor.py',
   'C:\\Users\\Kovács '
   'Máté\\AppData\\Local\\Programs\\Python\\Python311\\Lib\\site-packages\\kivy\\modules\\monitor.py',
   'DATA'),
  ('kivy_install\\data\\glsl\\default.fs',
   'C:\\Users\\Kovács '
   'Máté\\AppData\\Local\\Programs\\Python\\Python311\\Lib\\site-packages\\kivy\\data\\glsl\\default.fs',
   'DATA'),
  ('kivy_install\\data\\style.kv',
   'C:\\Users\\Kovács '
   'Máté\\AppData\\Local\\Programs\\Python\\Python311\\Lib\\site-packages\\kivy\\data\\style.kv',
   'DATA'),
  ('kivy_install\\data\\logo\\kivy-icon-32.png',
   'C:\\Users\\Kovács '
   'Máté\\AppData\\Local\\Programs\\Python\\Python311\\Lib\\site-packages\\kivy\\data\\logo\\kivy-icon-32.png',
   'DATA'),
  ('kivy_install\\modules\\webdebugger.py',
   'C:\\Users\\Kovács '
   'Máté\\AppData\\Local\\Programs\\Python\\Python311\\Lib\\site-packages\\kivy\\modules\\webdebugger.py',
   'DATA'),
  ('kivy_install\\modules\\__pycache__\\touchring.cpython-311.pyc',
   'C:\\Users\\Kovács '
   'Máté\\AppData\\Local\\Programs\\Python\\Python311\\Lib\\site-packages\\kivy\\modules\\__pycache__\\touchring.cpython-311.pyc',
   'DATA'),
  ('kivy_install\\data\\images\\cursor.png',
   'C:\\Users\\Kovács '
   'Máté\\AppData\\Local\\Programs\\Python\\Python311\\Lib\\site-packages\\kivy\\data\\images\\cursor.png',
   'DATA'),
  ('kivy_install\\modules\\__pycache__\\webdebugger.cpython-311.pyc',
   'C:\\Users\\Kovács '
   'Máté\\AppData\\Local\\Programs\\Python\\Python311\\Lib\\site-packages\\kivy\\modules\\__pycache__\\webdebugger.cpython-311.pyc',
   'DATA'),
  ('kivy_install\\data\\keyboards\\fr_CH.json',
   'C:\\Users\\Kovács '
   'Máté\\AppData\\Local\\Programs\\Python\\Python311\\Lib\\site-packages\\kivy\\data\\keyboards\\fr_CH.json',
   'DATA'),
  ('kivy_install\\data\\fonts\\Roboto-Bold.ttf',
   'C:\\Users\\Kovács '
   'Máté\\AppData\\Local\\Programs\\Python\\Python311\\Lib\\site-packages\\kivy\\data\\fonts\\Roboto-Bold.ttf',
   'DATA'),
  ('kivy_install\\data\\glsl\\default.vs',
   'C:\\Users\\Kovács '
   'Máté\\AppData\\Local\\Programs\\Python\\Python311\\Lib\\site-packages\\kivy\\data\\glsl\\default.vs',
   'DATA'),
  ('kivy_install\\modules\\keybinding.py',
   'C:\\Users\\Kovács '
   'Máté\\AppData\\Local\\Programs\\Python\\Python311\\Lib\\site-packages\\kivy\\modules\\keybinding.py',
   'DATA'),
  ('kivy_install\\modules\\__pycache__\\console.cpython-311.pyc',
   'C:\\Users\\Kovács '
   'Máté\\AppData\\Local\\Programs\\Python\\Python311\\Lib\\site-packages\\kivy\\modules\\__pycache__\\console.cpython-311.pyc',
   'DATA'),
  ('kivy_install\\modules\\__pycache__\\inspector.cpython-311.pyc',
   'C:\\Users\\Kovács '
   'Máté\\AppData\\Local\\Programs\\Python\\Python311\\Lib\\site-packages\\kivy\\modules\\__pycache__\\inspector.cpython-311.pyc',
   'DATA'),
  ('kivy_install\\modules\\__init__.py',
   'C:\\Users\\Kovács '
   'Máté\\AppData\\Local\\Programs\\Python\\Python311\\Lib\\site-packages\\kivy\\modules\\__init__.py',
   'DATA'),
  ('kivy_install\\modules\\__pycache__\\__init__.cpython-311.pyc',
   'C:\\Users\\Kovács '
   'Máté\\AppData\\Local\\Programs\\Python\\Python311\\Lib\\site-packages\\kivy\\modules\\__pycache__\\__init__.cpython-311.pyc',
   'DATA'),
  ('kivy_install\\modules\\screen.py',
   'C:\\Users\\Kovács '
   'Máté\\AppData\\Local\\Programs\\Python\\Python311\\Lib\\site-packages\\kivy\\modules\\screen.py',
   'DATA'),
  ('kivy_install\\data\\logo\\kivy-icon-16.png',
   'C:\\Users\\Kovács '
   'Máté\\AppData\\Local\\Programs\\Python\\Python311\\Lib\\site-packages\\kivy\\data\\logo\\kivy-icon-16.png',
   'DATA'),
  ('kivy_install\\data\\logo\\kivy-icon-512.png',
   'C:\\Users\\Kovács '
   'Máté\\AppData\\Local\\Programs\\Python\\Python311\\Lib\\site-packages\\kivy\\data\\logo\\kivy-icon-512.png',
   'DATA'),
  ('kivy_install\\data\\glsl\\header.vs',
   'C:\\Users\\Kovács '
   'Máté\\AppData\\Local\\Programs\\Python\\Python311\\Lib\\site-packages\\kivy\\data\\glsl\\header.vs',
   'DATA'),
  ('kivy_install\\modules\\recorder.py',
   'C:\\Users\\Kovács '
   'Máté\\AppData\\Local\\Programs\\Python\\Python311\\Lib\\site-packages\\kivy\\modules\\recorder.py',
   'DATA'),
  ('kivy_install\\data\\logo\\kivy-icon-64.ico',
   'C:\\Users\\Kovács '
   'Máté\\AppData\\Local\\Programs\\Python\\Python311\\Lib\\site-packages\\kivy\\data\\logo\\kivy-icon-64.ico',
   'DATA'),
  ('kivy_install\\data\\keyboards\\en_US.json',
   'C:\\Users\\Kovács '
   'Máté\\AppData\\Local\\Programs\\Python\\Python311\\Lib\\site-packages\\kivy\\data\\keyboards\\en_US.json',
   'DATA'),
  ('kivy_install\\data\\logo\\kivy-icon-256.png',
   'C:\\Users\\Kovács '
   'Máté\\AppData\\Local\\Programs\\Python\\Python311\\Lib\\site-packages\\kivy\\data\\logo\\kivy-icon-256.png',
   'DATA'),
  ('kivy_install\\data\\fonts\\Roboto-Italic.ttf',
   'C:\\Users\\Kovács '
   'Máté\\AppData\\Local\\Programs\\Python\\Python311\\Lib\\site-packages\\kivy\\data\\fonts\\Roboto-Italic.ttf',
   'DATA'),
  ('kivy_install\\data\\logo\\kivy-icon-64.png',
   'C:\\Users\\Kovács '
   'Máté\\AppData\\Local\\Programs\\Python\\Python311\\Lib\\site-packages\\kivy\\data\\logo\\kivy-icon-64.png',
   'DATA'),
  ('kivy_install\\modules\\showborder.py',
   'C:\\Users\\Kovács '
   'Máté\\AppData\\Local\\Programs\\Python\\Python311\\Lib\\site-packages\\kivy\\modules\\showborder.py',
   'DATA'),
  ('kivy_install\\modules\\joycursor.py',
   'C:\\Users\\Kovács '
   'Máté\\AppData\\Local\\Programs\\Python\\Python311\\Lib\\site-packages\\kivy\\modules\\joycursor.py',
   'DATA'),
  ('kivy_install\\data\\images\\image-loading.zip',
   'C:\\Users\\Kovács '
   'Máté\\AppData\\Local\\Programs\\Python\\Python311\\Lib\\site-packages\\kivy\\data\\images\\image-loading.zip',
   'DATA'),
  ('kivy_install\\modules\\cursor.py',
   'C:\\Users\\Kovács '
   'Máté\\AppData\\Local\\Programs\\Python\\Python311\\Lib\\site-packages\\kivy\\modules\\cursor.py',
   'DATA'),
  ('kivy_install\\data\\keyboards\\es_ES.json',
   'C:\\Users\\Kovács '
   'Máté\\AppData\\Local\\Programs\\Python\\Python311\\Lib\\site-packages\\kivy\\data\\keyboards\\es_ES.json',
   'DATA'),
  ('kivy_install\\data\\images\\image-loading.gif',
   'C:\\Users\\Kovács '
   'Máté\\AppData\\Local\\Programs\\Python\\Python311\\Lib\\site-packages\\kivy\\data\\images\\image-loading.gif',
   'DATA'),
  ('kivy_install\\data\\fonts\\Roboto-BoldItalic.ttf',
   'C:\\Users\\Kovács '
   'Máté\\AppData\\Local\\Programs\\Python\\Python311\\Lib\\site-packages\\kivy\\data\\fonts\\Roboto-BoldItalic.ttf',
   'DATA'),
  ('kivy_install\\data\\settings_kivy.json',
   'C:\\Users\\Kovács '
   'Máté\\AppData\\Local\\Programs\\Python\\Python311\\Lib\\site-packages\\kivy\\data\\settings_kivy.json',
   'DATA'),
  ('kivy_install\\data\\keyboards\\de.json',
   'C:\\Users\\Kovács '
   'Máté\\AppData\\Local\\Programs\\Python\\Python311\\Lib\\site-packages\\kivy\\data\\keyboards\\de.json',
   'DATA'),
  ('kivy_install\\data\\images\\defaulttheme-0.png',
   'C:\\Users\\Kovács '
   'Máté\\AppData\\Local\\Programs\\Python\\Python311\\Lib\\site-packages\\kivy\\data\\images\\defaulttheme-0.png',
   'DATA'),
  ('kivy_install\\data\\images\\testpattern.png',
   'C:\\Users\\Kovács '
   'Máté\\AppData\\Local\\Programs\\Python\\Python311\\Lib\\site-packages\\kivy\\data\\images\\testpattern.png',
   'DATA'),
  ('kivy_install\\data\\fonts\\RobotoMono-Regular.ttf',
   'C:\\Users\\Kovács '
   'Máté\\AppData\\Local\\Programs\\Python\\Python311\\Lib\\site-packages\\kivy\\data\\fonts\\RobotoMono-Regular.ttf',
   'DATA'),
  ('kivy_install\\modules\\_webdebugger.py',
   'C:\\Users\\Kovács '
   'Máté\\AppData\\Local\\Programs\\Python\\Python311\\Lib\\site-packages\\kivy\\modules\\_webdebugger.py',
   'DATA'),
  ('kivy_install\\modules\\__pycache__\\showborder.cpython-311.pyc',
   'C:\\Users\\Kovács '
   'Máté\\AppData\\Local\\Programs\\Python\\Python311\\Lib\\site-packages\\kivy\\modules\\__pycache__\\showborder.cpython-311.pyc',
   'DATA'),
  ('kivy_install\\data\\logo\\kivy-icon-24.png',
   'C:\\Users\\Kovács '
   'Máté\\AppData\\Local\\Programs\\Python\\Python311\\Lib\\site-packages\\kivy\\data\\logo\\kivy-icon-24.png',
   'DATA'),
  ('kivy_install\\data\\keyboards\\de_CH.json',
   'C:\\Users\\Kovács '
   'Máté\\AppData\\Local\\Programs\\Python\\Python311\\Lib\\site-packages\\kivy\\data\\keyboards\\de_CH.json',
   'DATA'),
  ('kivy_install\\modules\\__pycache__\\screen.cpython-311.pyc',
   'C:\\Users\\Kovács '
   'Máté\\AppData\\Local\\Programs\\Python\\Python311\\Lib\\site-packages\\kivy\\modules\\__pycache__\\screen.cpython-311.pyc',
   'DATA'),
  ('kivy_install\\modules\\__pycache__\\_webdebugger.cpython-311.pyc',
   'C:\\Users\\Kovács '
   'Máté\\AppData\\Local\\Programs\\Python\\Python311\\Lib\\site-packages\\kivy\\modules\\__pycache__\\_webdebugger.cpython-311.pyc',
   'DATA'),
  ('kivy_install\\data\\images\\background.jpg',
   'C:\\Users\\Kovács '
   'Máté\\AppData\\Local\\Programs\\Python\\Python311\\Lib\\site-packages\\kivy\\data\\images\\background.jpg',
   'DATA'),
  ('kivy_install\\data\\fonts\\DejaVuSans.ttf',
   'C:\\Users\\Kovács '
   'Máté\\AppData\\Local\\Programs\\Python\\Python311\\Lib\\site-packages\\kivy\\data\\fonts\\DejaVuSans.ttf',
   'DATA'),
  ('kivy_install\\data\\glsl\\default.png',
   'C:\\Users\\Kovács '
   'Máté\\AppData\\Local\\Programs\\Python\\Python311\\Lib\\site-packages\\kivy\\data\\glsl\\default.png',
   'DATA'),
  ('certifi\\py.typed',
   'C:\\Users\\Kovács '
   'Máté\\AppData\\Local\\Programs\\Python\\Python311\\Lib\\site-packages\\certifi\\py.typed',
   'DATA'),
  ('certifi\\cacert.pem',
   'C:\\Users\\Kovács '
   'Máté\\AppData\\Local\\Programs\\Python\\Python311\\Lib\\site-packages\\certifi\\cacert.pem',
   'DATA'),
  ('cv2\\config-3.py',
   'C:\\Users\\Kovács '
   'Máté\\AppData\\Local\\Programs\\Python\\Python311\\Lib\\site-packages\\cv2\\config-3.py',
   'DATA'),
  ('cv2\\load_config_py3.py',
   'C:\\Users\\Kovács '
   'Máté\\AppData\\Local\\Programs\\Python\\Python311\\Lib\\site-packages\\cv2\\load_config_py3.py',
   'DATA'),
  ('cv2\\config.py',
   'C:\\Users\\Kovács '
   'Máté\\AppData\\Local\\Programs\\Python\\Python311\\Lib\\site-packages\\cv2\\config.py',
   'DATA'),
  ('docutils\\parsers\\rst\\include\\isoamsr.txt',
   'C:\\Users\\Kovács '
   'Máté\\AppData\\Local\\Programs\\Python\\Python311\\Lib\\site-packages\\docutils\\parsers\\rst\\include\\isoamsr.txt',
   'DATA'),
  ('docutils\\writers\\html4css1\\html4css1.css',
   'C:\\Users\\Kovács '
   'Máté\\AppData\\Local\\Programs\\Python\\Python311\\Lib\\site-packages\\docutils\\writers\\html4css1\\html4css1.css',
   'DATA'),
  ('docutils\\parsers\\rst\\include\\isomopf.txt',
   'C:\\Users\\Kovács '
   'Máté\\AppData\\Local\\Programs\\Python\\Python311\\Lib\\site-packages\\docutils\\parsers\\rst\\include\\isomopf.txt',
   'DATA'),
  ('docutils\\writers\\s5_html\\themes\\medium-white\\framing.css',
   'C:\\Users\\Kovács '
   'Máté\\AppData\\Local\\Programs\\Python\\Python311\\Lib\\site-packages\\docutils\\writers\\s5_html\\themes\\medium-white\\framing.css',
   'DATA'),
  ('docutils\\writers\\s5_html\\themes\\big-black\\pretty.css',
   'C:\\Users\\Kovács '
   'Máté\\AppData\\Local\\Programs\\Python\\Python311\\Lib\\site-packages\\docutils\\writers\\s5_html\\themes\\big-black\\pretty.css',
   'DATA'),
  ('docutils\\writers\\html5_polyglot\\math.css',
   'C:\\Users\\Kovács '
   'Máté\\AppData\\Local\\Programs\\Python\\Python311\\Lib\\site-packages\\docutils\\writers\\html5_polyglot\\math.css',
   'DATA'),
  ('docutils\\writers\\s5_html\\themes\\big-white\\pretty.css',
   'C:\\Users\\Kovács '
   'Máté\\AppData\\Local\\Programs\\Python\\Python311\\Lib\\site-packages\\docutils\\writers\\s5_html\\themes\\big-white\\pretty.css',
   'DATA'),
  ('docutils\\docutils.conf',
   'C:\\Users\\Kovács '
   'Máté\\AppData\\Local\\Programs\\Python\\Python311\\Lib\\site-packages\\docutils\\docutils.conf',
   'DATA'),
  ('docutils\\parsers\\rst\\include\\xhtml1-symbol.txt',
   'C:\\Users\\Kovács '
   'Máté\\AppData\\Local\\Programs\\Python\\Python311\\Lib\\site-packages\\docutils\\parsers\\rst\\include\\xhtml1-symbol.txt',
   'DATA'),
  ('docutils\\parsers\\rst\\include\\isobox.txt',
   'C:\\Users\\Kovács '
   'Máté\\AppData\\Local\\Programs\\Python\\Python311\\Lib\\site-packages\\docutils\\parsers\\rst\\include\\isobox.txt',
   'DATA'),
  ('docutils\\writers\\s5_html\\themes\\default\\outline.css',
   'C:\\Users\\Kovács '
   'Máté\\AppData\\Local\\Programs\\Python\\Python311\\Lib\\site-packages\\docutils\\writers\\s5_html\\themes\\default\\outline.css',
   'DATA'),
  ('docutils\\writers\\html5_polyglot\\minimal.css',
   'C:\\Users\\Kovács '
   'Máté\\AppData\\Local\\Programs\\Python\\Python311\\Lib\\site-packages\\docutils\\writers\\html5_polyglot\\minimal.css',
   'DATA'),
  ('docutils\\writers\\latex2e\\titlingpage.tex',
   'C:\\Users\\Kovács '
   'Máté\\AppData\\Local\\Programs\\Python\\Python311\\Lib\\site-packages\\docutils\\writers\\latex2e\\titlingpage.tex',
   'DATA'),
  ('docutils\\parsers\\rst\\include\\isolat1.txt',
   'C:\\Users\\Kovács '
   'Máté\\AppData\\Local\\Programs\\Python\\Python311\\Lib\\site-packages\\docutils\\parsers\\rst\\include\\isolat1.txt',
   'DATA'),
  ('docutils\\writers\\s5_html\\themes\\default\\pretty.css',
   'C:\\Users\\Kovács '
   'Máté\\AppData\\Local\\Programs\\Python\\Python311\\Lib\\site-packages\\docutils\\writers\\s5_html\\themes\\default\\pretty.css',
   'DATA'),
  ('docutils\\writers\\s5_html\\themes\\big-black\\__base__',
   'C:\\Users\\Kovács '
   'Máté\\AppData\\Local\\Programs\\Python\\Python311\\Lib\\site-packages\\docutils\\writers\\s5_html\\themes\\big-black\\__base__',
   'DATA'),
  ('docutils\\writers\\s5_html\\themes\\default\\slides.css',
   'C:\\Users\\Kovács '
   'Máté\\AppData\\Local\\Programs\\Python\\Python311\\Lib\\site-packages\\docutils\\writers\\s5_html\\themes\\default\\slides.css',
   'DATA'),
  ('docutils\\parsers\\rst\\include\\isoamsn.txt',
   'C:\\Users\\Kovács '
   'Máté\\AppData\\Local\\Programs\\Python\\Python311\\Lib\\site-packages\\docutils\\parsers\\rst\\include\\isoamsn.txt',
   'DATA'),
  ('docutils\\writers\\pep_html\\pep.css',
   'C:\\Users\\Kovács '
   'Máté\\AppData\\Local\\Programs\\Python\\Python311\\Lib\\site-packages\\docutils\\writers\\pep_html\\pep.css',
   'DATA'),
  ('docutils\\writers\\s5_html\\themes\\big-white\\framing.css',
   'C:\\Users\\Kovács '
   'Máté\\AppData\\Local\\Programs\\Python\\Python311\\Lib\\site-packages\\docutils\\writers\\s5_html\\themes\\big-white\\framing.css',
   'DATA'),
  ('docutils\\parsers\\rst\\include\\isonum.txt',
   'C:\\Users\\Kovács '
   'Máté\\AppData\\Local\\Programs\\Python\\Python311\\Lib\\site-packages\\docutils\\parsers\\rst\\include\\isonum.txt',
   'DATA'),
  ('docutils\\parsers\\rst\\include\\mmlextra.txt',
   'C:\\Users\\Kovács '
   'Máté\\AppData\\Local\\Programs\\Python\\Python311\\Lib\\site-packages\\docutils\\parsers\\rst\\include\\mmlextra.txt',
   'DATA'),
  ('docutils\\parsers\\rst\\include\\isoamsc.txt',
   'C:\\Users\\Kovács '
   'Máté\\AppData\\Local\\Programs\\Python\\Python311\\Lib\\site-packages\\docutils\\parsers\\rst\\include\\isoamsc.txt',
   'DATA'),
  ('docutils\\writers\\odf_odt\\styles.odt',
   'C:\\Users\\Kovács '
   'Máté\\AppData\\Local\\Programs\\Python\\Python311\\Lib\\site-packages\\docutils\\writers\\odf_odt\\styles.odt',
   'DATA'),
  ('docutils\\writers\\s5_html\\themes\\medium-black\\pretty.css',
   'C:\\Users\\Kovács '
   'Máté\\AppData\\Local\\Programs\\Python\\Python311\\Lib\\site-packages\\docutils\\writers\\s5_html\\themes\\medium-black\\pretty.css',
   'DATA'),
  ('docutils\\writers\\s5_html\\themes\\default\\slides.js',
   'C:\\Users\\Kovács '
   'Máté\\AppData\\Local\\Programs\\Python\\Python311\\Lib\\site-packages\\docutils\\writers\\s5_html\\themes\\default\\slides.js',
   'DATA'),
  ('docutils\\writers\\s5_html\\themes\\default\\opera.css',
   'C:\\Users\\Kovács '
   'Máté\\AppData\\Local\\Programs\\Python\\Python311\\Lib\\site-packages\\docutils\\writers\\s5_html\\themes\\default\\opera.css',
   'DATA'),
  ('docutils\\writers\\s5_html\\themes\\medium-white\\pretty.css',
   'C:\\Users\\Kovács '
   'Máté\\AppData\\Local\\Programs\\Python\\Python311\\Lib\\site-packages\\docutils\\writers\\s5_html\\themes\\medium-white\\pretty.css',
   'DATA'),
  ('docutils\\writers\\pep_html\\template.txt',
   'C:\\Users\\Kovács '
   'Máté\\AppData\\Local\\Programs\\Python\\Python311\\Lib\\site-packages\\docutils\\writers\\pep_html\\template.txt',
   'DATA'),
  ('docutils\\parsers\\rst\\include\\README.txt',
   'C:\\Users\\Kovács '
   'Máté\\AppData\\Local\\Programs\\Python\\Python311\\Lib\\site-packages\\docutils\\parsers\\rst\\include\\README.txt',
   'DATA'),
  ('docutils\\parsers\\rst\\include\\mmlalias.txt',
   'C:\\Users\\Kovács '
   'Máté\\AppData\\Local\\Programs\\Python\\Python311\\Lib\\site-packages\\docutils\\parsers\\rst\\include\\mmlalias.txt',
   'DATA'),
  ('docutils\\writers\\html5_polyglot\\tuftig.css',
   'C:\\Users\\Kovács '
   'Máté\\AppData\\Local\\Programs\\Python\\Python311\\Lib\\site-packages\\docutils\\writers\\html5_polyglot\\tuftig.css',
   'DATA'),
  ('docutils\\parsers\\rst\\include\\isopub.txt',
   'C:\\Users\\Kovács '
   'Máté\\AppData\\Local\\Programs\\Python\\Python311\\Lib\\site-packages\\docutils\\parsers\\rst\\include\\isopub.txt',
   'DATA'),
  ('docutils\\writers\\s5_html\\themes\\default\\s5-core.css',
   'C:\\Users\\Kovács '
   'Máté\\AppData\\Local\\Programs\\Python\\Python311\\Lib\\site-packages\\docutils\\writers\\s5_html\\themes\\default\\s5-core.css',
   'DATA'),
  ('docutils\\writers\\latex2e\\titlepage.tex',
   'C:\\Users\\Kovács '
   'Máté\\AppData\\Local\\Programs\\Python\\Python311\\Lib\\site-packages\\docutils\\writers\\latex2e\\titlepage.tex',
   'DATA'),
  ('docutils\\parsers\\rst\\include\\isogrk4-wide.txt',
   'C:\\Users\\Kovács '
   'Máté\\AppData\\Local\\Programs\\Python\\Python311\\Lib\\site-packages\\docutils\\parsers\\rst\\include\\isogrk4-wide.txt',
   'DATA'),
  ('docutils\\parsers\\rst\\include\\isoamso.txt',
   'C:\\Users\\Kovács '
   'Máté\\AppData\\Local\\Programs\\Python\\Python311\\Lib\\site-packages\\docutils\\parsers\\rst\\include\\isoamso.txt',
   'DATA'),
  ('docutils\\parsers\\rst\\include\\isomfrk-wide.txt',
   'C:\\Users\\Kovács '
   'Máté\\AppData\\Local\\Programs\\Python\\Python311\\Lib\\site-packages\\docutils\\parsers\\rst\\include\\isomfrk-wide.txt',
   'DATA'),
  ('docutils\\parsers\\rst\\include\\isogrk2.txt',
   'C:\\Users\\Kovács '
   'Máté\\AppData\\Local\\Programs\\Python\\Python311\\Lib\\site-packages\\docutils\\parsers\\rst\\include\\isogrk2.txt',
   'DATA'),
  ('docutils\\parsers\\rst\\include\\isogrk3.txt',
   'C:\\Users\\Kovács '
   'Máté\\AppData\\Local\\Programs\\Python\\Python311\\Lib\\site-packages\\docutils\\parsers\\rst\\include\\isogrk3.txt',
   'DATA'),
  ('docutils\\parsers\\rst\\include\\isogrk1.txt',
   'C:\\Users\\Kovács '
   'Máté\\AppData\\Local\\Programs\\Python\\Python311\\Lib\\site-packages\\docutils\\parsers\\rst\\include\\isogrk1.txt',
   'DATA'),
  ('docutils\\writers\\html5_polyglot\\responsive.css',
   'C:\\Users\\Kovács '
   'Máté\\AppData\\Local\\Programs\\Python\\Python311\\Lib\\site-packages\\docutils\\writers\\html5_polyglot\\responsive.css',
   'DATA'),
  ('docutils\\parsers\\rst\\include\\xhtml1-special.txt',
   'C:\\Users\\Kovács '
   'Máté\\AppData\\Local\\Programs\\Python\\Python311\\Lib\\site-packages\\docutils\\parsers\\rst\\include\\xhtml1-special.txt',
   'DATA'),
  ('docutils\\parsers\\rst\\include\\isotech.txt',
   'C:\\Users\\Kovács '
   'Máté\\AppData\\Local\\Programs\\Python\\Python311\\Lib\\site-packages\\docutils\\parsers\\rst\\include\\isotech.txt',
   'DATA'),
  ('docutils\\writers\\s5_html\\themes\\medium-black\\__base__',
   'C:\\Users\\Kovács '
   'Máté\\AppData\\Local\\Programs\\Python\\Python311\\Lib\\site-packages\\docutils\\writers\\s5_html\\themes\\medium-black\\__base__',
   'DATA'),
  ('docutils\\writers\\s5_html\\themes\\small-black\\pretty.css',
   'C:\\Users\\Kovács '
   'Máté\\AppData\\Local\\Programs\\Python\\Python311\\Lib\\site-packages\\docutils\\writers\\s5_html\\themes\\small-black\\pretty.css',
   'DATA'),
  ('docutils\\writers\\latex2e\\default.tex',
   'C:\\Users\\Kovács '
   'Máté\\AppData\\Local\\Programs\\Python\\Python311\\Lib\\site-packages\\docutils\\writers\\latex2e\\default.tex',
   'DATA'),
  ('docutils\\parsers\\rst\\include\\mmlextra-wide.txt',
   'C:\\Users\\Kovács '
   'Máté\\AppData\\Local\\Programs\\Python\\Python311\\Lib\\site-packages\\docutils\\parsers\\rst\\include\\mmlextra-wide.txt',
   'DATA'),
  ('docutils\\parsers\\rst\\include\\isogrk4.txt',
   'C:\\Users\\Kovács '
   'Máté\\AppData\\Local\\Programs\\Python\\Python311\\Lib\\site-packages\\docutils\\parsers\\rst\\include\\isogrk4.txt',
   'DATA'),
  ('docutils\\parsers\\rst\\include\\xhtml1-lat1.txt',
   'C:\\Users\\Kovács '
   'Máté\\AppData\\Local\\Programs\\Python\\Python311\\Lib\\site-packages\\docutils\\parsers\\rst\\include\\xhtml1-lat1.txt',
   'DATA'),
  ('docutils\\parsers\\rst\\include\\isoamsa.txt',
   'C:\\Users\\Kovács '
   'Máté\\AppData\\Local\\Programs\\Python\\Python311\\Lib\\site-packages\\docutils\\parsers\\rst\\include\\isoamsa.txt',
   'DATA'),
  ('docutils\\parsers\\rst\\include\\isoamsb.txt',
   'C:\\Users\\Kovács '
   'Máté\\AppData\\Local\\Programs\\Python\\Python311\\Lib\\site-packages\\docutils\\parsers\\rst\\include\\isoamsb.txt',
   'DATA'),
  ('docutils\\parsers\\rst\\include\\isomopf-wide.txt',
   'C:\\Users\\Kovács '
   'Máté\\AppData\\Local\\Programs\\Python\\Python311\\Lib\\site-packages\\docutils\\parsers\\rst\\include\\isomopf-wide.txt',
   'DATA'),
  ('docutils\\writers\\html4css1\\template.txt',
   'C:\\Users\\Kovács '
   'Máté\\AppData\\Local\\Programs\\Python\\Python311\\Lib\\site-packages\\docutils\\writers\\html4css1\\template.txt',
   'DATA'),
  ('docutils\\writers\\s5_html\\themes\\default\\print.css',
   'C:\\Users\\Kovács '
   'Máté\\AppData\\Local\\Programs\\Python\\Python311\\Lib\\site-packages\\docutils\\writers\\s5_html\\themes\\default\\print.css',
   'DATA'),
  ('docutils\\parsers\\rst\\include\\isolat2.txt',
   'C:\\Users\\Kovács '
   'Máté\\AppData\\Local\\Programs\\Python\\Python311\\Lib\\site-packages\\docutils\\parsers\\rst\\include\\isolat2.txt',
   'DATA'),
  ('docutils\\writers\\s5_html\\themes\\small-white\\framing.css',
   'C:\\Users\\Kovács '
   'Máté\\AppData\\Local\\Programs\\Python\\Python311\\Lib\\site-packages\\docutils\\writers\\s5_html\\themes\\small-white\\framing.css',
   'DATA'),
  ('docutils\\parsers\\rst\\include\\isocyr1.txt',
   'C:\\Users\\Kovács '
   'Máté\\AppData\\Local\\Programs\\Python\\Python311\\Lib\\site-packages\\docutils\\parsers\\rst\\include\\isocyr1.txt',
   'DATA'),
  ('docutils\\parsers\\rst\\include\\isomscr-wide.txt',
   'C:\\Users\\Kovács '
   'Máté\\AppData\\Local\\Programs\\Python\\Python311\\Lib\\site-packages\\docutils\\parsers\\rst\\include\\isomscr-wide.txt',
   'DATA'),
  ('docutils\\writers\\s5_html\\themes\\README.txt',
   'C:\\Users\\Kovács '
   'Máté\\AppData\\Local\\Programs\\Python\\Python311\\Lib\\site-packages\\docutils\\writers\\s5_html\\themes\\README.txt',
   'DATA'),
  ('docutils\\writers\\s5_html\\themes\\default\\framing.css',
   'C:\\Users\\Kovács '
   'Máté\\AppData\\Local\\Programs\\Python\\Python311\\Lib\\site-packages\\docutils\\writers\\s5_html\\themes\\default\\framing.css',
   'DATA'),
  ('docutils\\writers\\s5_html\\themes\\big-black\\framing.css',
   'C:\\Users\\Kovács '
   'Máté\\AppData\\Local\\Programs\\Python\\Python311\\Lib\\site-packages\\docutils\\writers\\s5_html\\themes\\big-black\\framing.css',
   'DATA'),
  ('docutils\\writers\\html5_polyglot\\italic-field-names.css',
   'C:\\Users\\Kovács '
   'Máté\\AppData\\Local\\Programs\\Python\\Python311\\Lib\\site-packages\\docutils\\writers\\html5_polyglot\\italic-field-names.css',
   'DATA'),
  ('docutils\\writers\\s5_html\\themes\\small-black\\__base__',
   'C:\\Users\\Kovács '
   'Máté\\AppData\\Local\\Programs\\Python\\Python311\\Lib\\site-packages\\docutils\\writers\\s5_html\\themes\\small-black\\__base__',
   'DATA'),
  ('docutils\\writers\\latex2e\\docutils.sty',
   'C:\\Users\\Kovács '
   'Máté\\AppData\\Local\\Programs\\Python\\Python311\\Lib\\site-packages\\docutils\\writers\\latex2e\\docutils.sty',
   'DATA'),
  ('docutils\\writers\\s5_html\\themes\\small-white\\pretty.css',
   'C:\\Users\\Kovács '
   'Máté\\AppData\\Local\\Programs\\Python\\Python311\\Lib\\site-packages\\docutils\\writers\\s5_html\\themes\\small-white\\pretty.css',
   'DATA'),
  ('docutils\\parsers\\rst\\include\\isomfrk.txt',
   'C:\\Users\\Kovács '
   'Máté\\AppData\\Local\\Programs\\Python\\Python311\\Lib\\site-packages\\docutils\\parsers\\rst\\include\\isomfrk.txt',
   'DATA'),
  ('docutils\\parsers\\rst\\include\\isodia.txt',
   'C:\\Users\\Kovács '
   'Máté\\AppData\\Local\\Programs\\Python\\Python311\\Lib\\site-packages\\docutils\\parsers\\rst\\include\\isodia.txt',
   'DATA'),
  ('docutils\\writers\\html5_polyglot\\plain.css',
   'C:\\Users\\Kovács '
   'Máté\\AppData\\Local\\Programs\\Python\\Python311\\Lib\\site-packages\\docutils\\writers\\html5_polyglot\\plain.css',
   'DATA'),
  ('docutils\\parsers\\rst\\include\\isomscr.txt',
   'C:\\Users\\Kovács '
   'Máté\\AppData\\Local\\Programs\\Python\\Python311\\Lib\\site-packages\\docutils\\parsers\\rst\\include\\isomscr.txt',
   'DATA'),
  ('docutils\\writers\\html5_polyglot\\template.txt',
   'C:\\Users\\Kovács '
   'Máté\\AppData\\Local\\Programs\\Python\\Python311\\Lib\\site-packages\\docutils\\writers\\html5_polyglot\\template.txt',
   'DATA'),
  ('docutils\\parsers\\rst\\include\\isocyr2.txt',
   'C:\\Users\\Kovács '
   'Máté\\AppData\\Local\\Programs\\Python\\Python311\\Lib\\site-packages\\docutils\\parsers\\rst\\include\\isocyr2.txt',
   'DATA'),
  ('docutils\\parsers\\rst\\include\\s5defs.txt',
   'C:\\Users\\Kovács '
   'Máté\\AppData\\Local\\Programs\\Python\\Python311\\Lib\\site-packages\\docutils\\parsers\\rst\\include\\s5defs.txt',
   'DATA'),
  ('docutils\\writers\\latex2e\\xelatex.tex',
   'C:\\Users\\Kovács '
   'Máté\\AppData\\Local\\Programs\\Python\\Python311\\Lib\\site-packages\\docutils\\writers\\latex2e\\xelatex.tex',
   'DATA'),
  ('kivymd\\uix\\expansionpanel\\expansionpanel.kv',
   'C:\\Users\\Kovács '
   'Máté\\AppData\\Local\\Programs\\Python\\Python311\\Lib\\site-packages\\kivymd\\uix\\expansionpanel\\expansionpanel.kv',
   'DATA'),
  ('kivymd\\uix\\filemanager\\filemanager.kv',
   'C:\\Users\\Kovács '
   'Máté\\AppData\\Local\\Programs\\Python\\Python311\\Lib\\site-packages\\kivymd\\uix\\filemanager\\filemanager.kv',
   'DATA'),
  ('kivymd\\uix\\sliverappbar\\sliverappbar.kv',
   'C:\\Users\\Kovács '
   'Máté\\AppData\\Local\\Programs\\Python\\Python311\\Lib\\site-packages\\kivymd\\uix\\sliverappbar\\sliverappbar.kv',
   'DATA'),
  ('kivymd\\images\\folder.png',
   'C:\\Users\\Kovács '
   'Máté\\AppData\\Local\\Programs\\Python\\Python311\\Lib\\site-packages\\kivymd\\images\\folder.png',
   'DATA'),
  ('kivymd\\uix\\dialog\\dialog.kv',
   'C:\\Users\\Kovács '
   'Máté\\AppData\\Local\\Programs\\Python\\Python311\\Lib\\site-packages\\kivymd\\uix\\dialog\\dialog.kv',
   'DATA'),
  ('kivymd\\uix\\progressbar\\progressbar.kv',
   'C:\\Users\\Kovács '
   'Máté\\AppData\\Local\\Programs\\Python\\Python311\\Lib\\site-packages\\kivymd\\uix\\progressbar\\progressbar.kv',
   'DATA'),
  ('kivymd\\uix\\pickers\\datepicker\\datepicker.kv',
   'C:\\Users\\Kovács '
   'Máté\\AppData\\Local\\Programs\\Python\\Python311\\Lib\\site-packages\\kivymd\\uix\\pickers\\datepicker\\datepicker.kv',
   'DATA'),
  ('kivymd\\uix\\segmentedbutton\\segmentedbutton.kv',
   'C:\\Users\\Kovács '
   'Máté\\AppData\\Local\\Programs\\Python\\Python311\\Lib\\site-packages\\kivymd\\uix\\segmentedbutton\\segmentedbutton.kv',
   'DATA'),
  ('kivymd\\images\\black.png',
   'C:\\Users\\Kovács '
   'Máté\\AppData\\Local\\Programs\\Python\\Python311\\Lib\\site-packages\\kivymd\\images\\black.png',
   'DATA'),
  ('kivymd\\uix\\datatables\\datatables.kv',
   'C:\\Users\\Kovács '
   'Máté\\AppData\\Local\\Programs\\Python\\Python311\\Lib\\site-packages\\kivymd\\uix\\datatables\\datatables.kv',
   'DATA'),
  ('kivymd\\images\\logo\\kivymd-icon-128.png',
   'C:\\Users\\Kovács '
   'Máté\\AppData\\Local\\Programs\\Python\\Python311\\Lib\\site-packages\\kivymd\\images\\logo\\kivymd-icon-128.png',
   'DATA'),
  ('kivymd\\uix\\navigationrail\\navigationrail.kv',
   'C:\\Users\\Kovács '
   'Máté\\AppData\\Local\\Programs\\Python\\Python311\\Lib\\site-packages\\kivymd\\uix\\navigationrail\\navigationrail.kv',
   'DATA'),
  ('kivymd\\images\\blue.png',
   'C:\\Users\\Kovács '
   'Máté\\AppData\\Local\\Programs\\Python\\Python311\\Lib\\site-packages\\kivymd\\images\\blue.png',
   'DATA'),
  ('kivymd\\uix\\refreshlayout\\refreshlayout.kv',
   'C:\\Users\\Kovács '
   'Máté\\AppData\\Local\\Programs\\Python\\Python311\\Lib\\site-packages\\kivymd\\uix\\refreshlayout\\refreshlayout.kv',
   'DATA'),
  ('kivymd\\uix\\pickers\\timepicker\\timepicker.kv',
   'C:\\Users\\Kovács '
   'Máté\\AppData\\Local\\Programs\\Python\\Python311\\Lib\\site-packages\\kivymd\\uix\\pickers\\timepicker\\timepicker.kv',
   'DATA'),
  ('kivymd\\fonts\\Roboto-Light.ttf',
   'C:\\Users\\Kovács '
   'Máté\\AppData\\Local\\Programs\\Python\\Python311\\Lib\\site-packages\\kivymd\\fonts\\Roboto-Light.ttf',
   'DATA'),
  ('kivymd\\images\\alpha_layer.png',
   'C:\\Users\\Kovács '
   'Máté\\AppData\\Local\\Programs\\Python\\Python311\\Lib\\site-packages\\kivymd\\images\\alpha_layer.png',
   'DATA'),
  ('kivymd\\uix\\banner\\banner.kv',
   'C:\\Users\\Kovács '
   'Máté\\AppData\\Local\\Programs\\Python\\Python311\\Lib\\site-packages\\kivymd\\uix\\banner\\banner.kv',
   'DATA'),
  ('kivymd\\uix\\toolbar\\toolbar.kv',
   'C:\\Users\\Kovács '
   'Máté\\AppData\\Local\\Programs\\Python\\Python311\\Lib\\site-packages\\kivymd\\uix\\toolbar\\toolbar.kv',
   'DATA'),
  ('kivymd\\fonts\\Roboto-LightItalic.ttf',
   'C:\\Users\\Kovács '
   'Máté\\AppData\\Local\\Programs\\Python\\Python311\\Lib\\site-packages\\kivymd\\fonts\\Roboto-LightItalic.ttf',
   'DATA'),
  ('kivymd\\uix\\backdrop\\backdrop.kv',
   'C:\\Users\\Kovács '
   'Máté\\AppData\\Local\\Programs\\Python\\Python311\\Lib\\site-packages\\kivymd\\uix\\backdrop\\backdrop.kv',
   'DATA'),
  ('kivymd\\fonts\\materialdesignicons-webfont.ttf',
   'C:\\Users\\Kovács '
   'Máté\\AppData\\Local\\Programs\\Python\\Python311\\Lib\\site-packages\\kivymd\\fonts\\materialdesignicons-webfont.ttf',
   'DATA'),
  ('kivymd\\fonts\\Roboto-Thin.ttf',
   'C:\\Users\\Kovács '
   'Máté\\AppData\\Local\\Programs\\Python\\Python311\\Lib\\site-packages\\kivymd\\fonts\\Roboto-Thin.ttf',
   'DATA'),
  ('kivymd\\images\\logo\\kivymd-icon-256.png',
   'C:\\Users\\Kovács '
   'Máté\\AppData\\Local\\Programs\\Python\\Python311\\Lib\\site-packages\\kivymd\\images\\logo\\kivymd-icon-256.png',
   'DATA'),
  ('kivymd\\images\\logo\\kivymd-icon-512.png',
   'C:\\Users\\Kovács '
   'Máté\\AppData\\Local\\Programs\\Python\\Python311\\Lib\\site-packages\\kivymd\\images\\logo\\kivymd-icon-512.png',
   'DATA'),
  ('kivymd\\fonts\\Roboto-Medium.ttf',
   'C:\\Users\\Kovács '
   'Máté\\AppData\\Local\\Programs\\Python\\Python311\\Lib\\site-packages\\kivymd\\fonts\\Roboto-Medium.ttf',
   'DATA'),
  ('kivymd\\images\\red.png',
   'C:\\Users\\Kovács '
   'Máté\\AppData\\Local\\Programs\\Python\\Python311\\Lib\\site-packages\\kivymd\\images\\red.png',
   'DATA'),
  ('kivymd\\uix\\tab\\tab.kv',
   'C:\\Users\\Kovács '
   'Máté\\AppData\\Local\\Programs\\Python\\Python311\\Lib\\site-packages\\kivymd\\uix\\tab\\tab.kv',
   'DATA'),
  ('kivymd\\fonts\\Roboto-Regular.ttf',
   'C:\\Users\\Kovács '
   'Máté\\AppData\\Local\\Programs\\Python\\Python311\\Lib\\site-packages\\kivymd\\fonts\\Roboto-Regular.ttf',
   'DATA'),
  ('kivymd\\uix\\snackbar\\snackbar.kv',
   'C:\\Users\\Kovács '
   'Máté\\AppData\\Local\\Programs\\Python\\Python311\\Lib\\site-packages\\kivymd\\uix\\snackbar\\snackbar.kv',
   'DATA'),
  ('kivymd\\uix\\button\\button.kv',
   'C:\\Users\\Kovács '
   'Máté\\AppData\\Local\\Programs\\Python\\Python311\\Lib\\site-packages\\kivymd\\uix\\button\\button.kv',
   'DATA'),
  ('kivymd\\uix\\spinner\\spinner.kv',
   'C:\\Users\\Kovács '
   'Máté\\AppData\\Local\\Programs\\Python\\Python311\\Lib\\site-packages\\kivymd\\uix\\spinner\\spinner.kv',
   'DATA'),
  ('kivymd\\uix\\selectioncontrol\\selectioncontrol.kv',
   'C:\\Users\\Kovács '
   'Máté\\AppData\\Local\\Programs\\Python\\Python311\\Lib\\site-packages\\kivymd\\uix\\selectioncontrol\\selectioncontrol.kv',
   'DATA'),
  ('kivymd\\uix\\selection\\selection.kv',
   'C:\\Users\\Kovács '
   'Máté\\AppData\\Local\\Programs\\Python\\Python311\\Lib\\site-packages\\kivymd\\uix\\selection\\selection.kv',
   'DATA'),
  ('kivymd\\uix\\tooltip\\tooltip.kv',
   'C:\\Users\\Kovács '
   'Máté\\AppData\\Local\\Programs\\Python\\Python311\\Lib\\site-packages\\kivymd\\uix\\tooltip\\tooltip.kv',
   'DATA'),
  ('kivymd\\uix\\slider\\slider.kv',
   'C:\\Users\\Kovács '
   'Máté\\AppData\\Local\\Programs\\Python\\Python311\\Lib\\site-packages\\kivymd\\uix\\slider\\slider.kv',
   'DATA'),
  ('kivymd\\fonts\\Roboto-Bold.ttf',
   'C:\\Users\\Kovács '
   'Máté\\AppData\\Local\\Programs\\Python\\Python311\\Lib\\site-packages\\kivymd\\fonts\\Roboto-Bold.ttf',
   'DATA'),
  ('kivymd\\uix\\list\\list.kv',
   'C:\\Users\\Kovács '
   'Máté\\AppData\\Local\\Programs\\Python\\Python311\\Lib\\site-packages\\kivymd\\uix\\list\\list.kv',
   'DATA'),
  ('kivymd\\uix\\pickers\\colorpicker\\colorpicker.kv',
   'C:\\Users\\Kovács '
   'Máté\\AppData\\Local\\Programs\\Python\\Python311\\Lib\\site-packages\\kivymd\\uix\\pickers\\colorpicker\\colorpicker.kv',
   'DATA'),
  ('kivymd\\fonts\\Roboto-Black.ttf',
   'C:\\Users\\Kovács '
   'Máté\\AppData\\Local\\Programs\\Python\\Python311\\Lib\\site-packages\\kivymd\\fonts\\Roboto-Black.ttf',
   'DATA'),
  ('kivymd\\fonts\\Roboto-MediumItalic.ttf',
   'C:\\Users\\Kovács '
   'Máté\\AppData\\Local\\Programs\\Python\\Python311\\Lib\\site-packages\\kivymd\\fonts\\Roboto-MediumItalic.ttf',
   'DATA'),
  ('kivymd\\fonts\\Roboto-ThinItalic.ttf',
   'C:\\Users\\Kovács '
   'Máté\\AppData\\Local\\Programs\\Python\\Python311\\Lib\\site-packages\\kivymd\\fonts\\Roboto-ThinItalic.ttf',
   'DATA'),
  ('kivymd\\uix\\imagelist\\imagelist.kv',
   'C:\\Users\\Kovács '
   'Máté\\AppData\\Local\\Programs\\Python\\Python311\\Lib\\site-packages\\kivymd\\uix\\imagelist\\imagelist.kv',
   'DATA'),
  ('kivymd\\uix\\chip\\chip.kv',
   'C:\\Users\\Kovács '
   'Máté\\AppData\\Local\\Programs\\Python\\Python311\\Lib\\site-packages\\kivymd\\uix\\chip\\chip.kv',
   'DATA'),
  ('kivymd\\images\\yellow.png',
   'C:\\Users\\Kovács '
   'Máté\\AppData\\Local\\Programs\\Python\\Python311\\Lib\\site-packages\\kivymd\\images\\yellow.png',
   'DATA'),
  ('kivymd\\uix\\swiper\\swiper.kv',
   'C:\\Users\\Kovács '
   'Máté\\AppData\\Local\\Programs\\Python\\Python311\\Lib\\site-packages\\kivymd\\uix\\swiper\\swiper.kv',
   'DATA'),
  ('kivymd\\fonts\\Roboto-BoldItalic.ttf',
   'C:\\Users\\Kovács '
   'Máté\\AppData\\Local\\Programs\\Python\\Python311\\Lib\\site-packages\\kivymd\\fonts\\Roboto-BoldItalic.ttf',
   'DATA'),
  ('kivymd\\uix\\navigationdrawer\\navigationdrawer.kv',
   'C:\\Users\\Kovács '
   'Máté\\AppData\\Local\\Programs\\Python\\Python311\\Lib\\site-packages\\kivymd\\uix\\navigationdrawer\\navigationdrawer.kv',
   'DATA'),
  ('kivymd\\fonts\\Roboto-Italic.ttf',
   'C:\\Users\\Kovács '
   'Máté\\AppData\\Local\\Programs\\Python\\Python311\\Lib\\site-packages\\kivymd\\fonts\\Roboto-Italic.ttf',
   'DATA'),
  ('kivymd\\uix\\dropdownitem\\dropdownitem.kv',
   'C:\\Users\\Kovács '
   'Máté\\AppData\\Local\\Programs\\Python\\Python311\\Lib\\site-packages\\kivymd\\uix\\dropdownitem\\dropdownitem.kv',
   'DATA'),
  ('kivymd\\uix\\label\\label.kv',
   'C:\\Users\\Kovács '
   'Máté\\AppData\\Local\\Programs\\Python\\Python311\\Lib\\site-packages\\kivymd\\uix\\label\\label.kv',
   'DATA'),
  ('kivymd\\uix\\card\\card.kv',
   'C:\\Users\\Kovács '
   'Máté\\AppData\\Local\\Programs\\Python\\Python311\\Lib\\site-packages\\kivymd\\uix\\card\\card.kv',
   'DATA'),
  ('kivymd\\fonts\\Roboto-BlackItalic.ttf',
   'C:\\Users\\Kovács '
   'Máté\\AppData\\Local\\Programs\\Python\\Python311\\Lib\\site-packages\\kivymd\\fonts\\Roboto-BlackItalic.ttf',
   'DATA'),
  ('kivymd\\images\\transparent.png',
   'C:\\Users\\Kovács '
   'Máté\\AppData\\Local\\Programs\\Python\\Python311\\Lib\\site-packages\\kivymd\\images\\transparent.png',
   'DATA'),
  ('kivymd\\uix\\menu\\menu.kv',
   'C:\\Users\\Kovács '
   'Máté\\AppData\\Local\\Programs\\Python\\Python311\\Lib\\site-packages\\kivymd\\uix\\menu\\menu.kv',
   'DATA'),
  ('kivymd\\images\\green.png',
   'C:\\Users\\Kovács '
   'Máté\\AppData\\Local\\Programs\\Python\\Python311\\Lib\\site-packages\\kivymd\\images\\green.png',
   'DATA'),
  ('kivymd\\uix\\segmentedcontrol\\segmentedcontrol.kv',
   'C:\\Users\\Kovács '
   'Máté\\AppData\\Local\\Programs\\Python\\Python311\\Lib\\site-packages\\kivymd\\uix\\segmentedcontrol\\segmentedcontrol.kv',
   'DATA'),
  ('kivymd\\uix\\bottomsheet\\bottomsheet.kv',
   'C:\\Users\\Kovács '
   'Máté\\AppData\\Local\\Programs\\Python\\Python311\\Lib\\site-packages\\kivymd\\uix\\bottomsheet\\bottomsheet.kv',
   'DATA'),
  ('kivymd\\uix\\textfield\\textfield.kv',
   'C:\\Users\\Kovács '
   'Máté\\AppData\\Local\\Programs\\Python\\Python311\\Lib\\site-packages\\kivymd\\uix\\textfield\\textfield.kv',
   'DATA'),
  ('kivymd\\uix\\bottomnavigation\\bottomnavigation.kv',
   'C:\\Users\\Kovács '
   'Máté\\AppData\\Local\\Programs\\Python\\Python311\\Lib\\site-packages\\kivymd\\uix\\bottomnavigation\\bottomnavigation.kv',
   'DATA'),
  ('setuptools-65.5.0.dist-info\\REQUESTED',
   'C:\\Users\\Kovács '
   'Máté\\AppData\\Local\\Programs\\Python\\Python311\\Lib\\site-packages\\setuptools-65.5.0.dist-info\\REQUESTED',
   'DATA'),
  ('wheel-0.43.0.dist-info\\WHEEL',
   'C:\\Users\\Kovács '
   'Máté\\AppData\\Local\\Programs\\Python\\Python311\\Lib\\site-packages\\wheel-0.43.0.dist-info\\WHEEL',
   'DATA'),
  ('wheel-0.43.0.dist-info\\INSTALLER',
   'C:\\Users\\Kovács '
   'Máté\\AppData\\Local\\Programs\\Python\\Python311\\Lib\\site-packages\\wheel-0.43.0.dist-info\\INSTALLER',
   'DATA'),
  ('setuptools-65.5.0.dist-info\\INSTALLER',
   'C:\\Users\\Kovács '
   'Máté\\AppData\\Local\\Programs\\Python\\Python311\\Lib\\site-packages\\setuptools-65.5.0.dist-info\\INSTALLER',
   'DATA'),
  ('setuptools-65.5.0.dist-info\\top_level.txt',
   'C:\\Users\\Kovács '
   'Máté\\AppData\\Local\\Programs\\Python\\Python311\\Lib\\site-packages\\setuptools-65.5.0.dist-info\\top_level.txt',
   'DATA'),
  ('wheel-0.43.0.dist-info\\RECORD',
   'C:\\Users\\Kovács '
   'Máté\\AppData\\Local\\Programs\\Python\\Python311\\Lib\\site-packages\\wheel-0.43.0.dist-info\\RECORD',
   'DATA'),
  ('setuptools-65.5.0.dist-info\\LICENSE',
   'C:\\Users\\Kovács '
   'Máté\\AppData\\Local\\Programs\\Python\\Python311\\Lib\\site-packages\\setuptools-65.5.0.dist-info\\LICENSE',
   'DATA'),
  ('wheel-0.43.0.dist-info\\LICENSE.txt',
   'C:\\Users\\Kovács '
   'Máté\\AppData\\Local\\Programs\\Python\\Python311\\Lib\\site-packages\\wheel-0.43.0.dist-info\\LICENSE.txt',
   'DATA'),
  ('setuptools-65.5.0.dist-info\\RECORD',
   'C:\\Users\\Kovács '
   'Máté\\AppData\\Local\\Programs\\Python\\Python311\\Lib\\site-packages\\setuptools-65.5.0.dist-info\\RECORD',
   'DATA'),
  ('wheel-0.43.0.dist-info\\entry_points.txt',
   'C:\\Users\\Kovács '
   'Máté\\AppData\\Local\\Programs\\Python\\Python311\\Lib\\site-packages\\wheel-0.43.0.dist-info\\entry_points.txt',
   'DATA'),
  ('setuptools-65.5.0.dist-info\\METADATA',
   'C:\\Users\\Kovács '
   'Máté\\AppData\\Local\\Programs\\Python\\Python311\\Lib\\site-packages\\setuptools-65.5.0.dist-info\\METADATA',
   'DATA'),
  ('wheel-0.43.0.dist-info\\METADATA',
   'C:\\Users\\Kovács '
   'Máté\\AppData\\Local\\Programs\\Python\\Python311\\Lib\\site-packages\\wheel-0.43.0.dist-info\\METADATA',
   'DATA'),
  ('setuptools-65.5.0.dist-info\\WHEEL',
   'C:\\Users\\Kovács '
   'Máté\\AppData\\Local\\Programs\\Python\\Python311\\Lib\\site-packages\\setuptools-65.5.0.dist-info\\WHEEL',
   'DATA'),
  ('setuptools-65.5.0.dist-info\\entry_points.txt',
   'C:\\Users\\Kovács '
   'Máté\\AppData\\Local\\Programs\\Python\\Python311\\Lib\\site-packages\\setuptools-65.5.0.dist-info\\entry_points.txt',
   'DATA'),
  ('cv2\\__init__.py',
   'C:\\Users\\Kovács '
   'Máté\\AppData\\Local\\Programs\\Python\\Python311\\Lib\\site-packages\\cv2\\__init__.py',
   'DATA'),
  ('cv2\\version.py',
   'C:\\Users\\Kovács '
   'Máté\\AppData\\Local\\Programs\\Python\\Python311\\Lib\\site-packages\\cv2\\version.py',
   'DATA'),
  ('cv2\\utils\\__init__.py',
   'C:\\Users\\Kovács '
   'Máté\\AppData\\Local\\Programs\\Python\\Python311\\Lib\\site-packages\\cv2\\utils\\__init__.py',
   'DATA'),
  ('cv2\\typing\\__init__.py',
   'C:\\Users\\Kovács '
   'Máté\\AppData\\Local\\Programs\\Python\\Python311\\Lib\\site-packages\\cv2\\typing\\__init__.py',
   'DATA'),
  ('cv2\\misc\\version.py',
   'C:\\Users\\Kovács '
   'Máté\\AppData\\Local\\Programs\\Python\\Python311\\Lib\\site-packages\\cv2\\misc\\version.py',
   'DATA'),
  ('cv2\\misc\\__init__.py',
   'C:\\Users\\Kovács '
   'Máté\\AppData\\Local\\Programs\\Python\\Python311\\Lib\\site-packages\\cv2\\misc\\__init__.py',
   'DATA'),
  ('cv2\\mat_wrapper\\__init__.py',
   'C:\\Users\\Kovács '
   'Máté\\AppData\\Local\\Programs\\Python\\Python311\\Lib\\site-packages\\cv2\\mat_wrapper\\__init__.py',
   'DATA'),
  ('cv2\\gapi\\__init__.py',
   'C:\\Users\\Kovács '
   'Máté\\AppData\\Local\\Programs\\Python\\Python311\\Lib\\site-packages\\cv2\\gapi\\__init__.py',
   'DATA'),
  ('cv2\\data\\__init__.py',
   'C:\\Users\\Kovács '
   'Máté\\AppData\\Local\\Programs\\Python\\Python311\\Lib\\site-packages\\cv2\\data\\__init__.py',
   'DATA')],)
