('C:\\prog\\python a gyakban\\projekt\\pycode\\build\\main\\main.pkg',
 {'BINARY': True,
  'DATA': True,
  'EXECUTABLE': True,
  'EXTENSION': True,
  'PYMODULE': True,
  'PYSOURCE': True,
  'PYZ': False,
  'SPLASH': True,
  'SYMLINK': False},
 [('pyi-contents-directory _internal', '', 'OPTION'),
  ('PYZ-00.pyz',
   'C:\\prog\\python a gyakban\\projekt\\pycode\\build\\main\\PYZ-00.pyz',
   'PYZ'),
  ('struct',
   'C:\\prog\\python a '
   'gyakban\\projekt\\pycode\\build\\main\\localpycs\\struct.pyc',
   'PYMODULE'),
  ('pyimod01_archive',
   'C:\\prog\\python a '
   'gyakban\\projekt\\pycode\\build\\main\\localpycs\\pyimod01_archive.pyc',
   'PYMODULE'),
  ('pyimod02_importers',
   'C:\\prog\\python a '
   'gyakban\\projekt\\pycode\\build\\main\\localpycs\\pyimod02_importers.pyc',
   'PYMODULE'),
  ('pyimod03_ctypes',
   'C:\\prog\\python a '
   'gyakban\\projekt\\pycode\\build\\main\\localpycs\\pyimod03_ctypes.pyc',
   'PYMODULE'),
  ('pyimod04_pywin32',
   'C:\\prog\\python a '
   'gyakban\\projekt\\pycode\\build\\main\\localpycs\\pyimod04_pywin32.pyc',
   'PYMODULE'),
  ('pyiboot01_bootstrap',
   'C:\\Users\\Kovács '
   'Máté\\AppData\\Local\\Programs\\Python\\Python311\\Lib\\site-packages\\PyInstaller\\loader\\pyiboot01_bootstrap.py',
   'PYSOURCE'),
  ('pyi_rth_inspect',
   'C:\\Users\\Kovács '
   'Máté\\AppData\\Local\\Programs\\Python\\Python311\\Lib\\site-packages\\PyInstaller\\hooks\\rthooks\\pyi_rth_inspect.py',
   'PYSOURCE'),
  ('pyi_rth_kivy',
   'C:\\Users\\Kovács '
   'Máté\\AppData\\Local\\Programs\\Python\\Python311\\Lib\\site-packages\\PyInstaller\\hooks\\rthooks\\pyi_rth_kivy.py',
   'PYSOURCE'),
  ('pyi_rth_gstreamer',
   'C:\\Users\\Kovács '
   'Máté\\AppData\\Local\\Programs\\Python\\Python311\\Lib\\site-packages\\PyInstaller\\hooks\\rthooks\\pyi_rth_gstreamer.py',
   'PYSOURCE'),
  ('pyi_rth_multiprocessing',
   'C:\\Users\\Kovács '
   'Máté\\AppData\\Local\\Programs\\Python\\Python311\\Lib\\site-packages\\PyInstaller\\hooks\\rthooks\\pyi_rth_multiprocessing.py',
   'PYSOURCE'),
  ('pyi_rth_pkgres',
   'C:\\Users\\Kovács '
   'Máté\\AppData\\Local\\Programs\\Python\\Python311\\Lib\\site-packages\\PyInstaller\\hooks\\rthooks\\pyi_rth_pkgres.py',
   'PYSOURCE'),
  ('pyi_rth_pywintypes',
   'C:\\Users\\Kovács '
   'Máté\\AppData\\Local\\Programs\\Python\\Python311\\Lib\\site-packages\\_pyinstaller_hooks_contrib\\hooks\\rthooks\\pyi_rth_pywintypes.py',
   'PYSOURCE'),
  ('pyi_rth_pythoncom',
   'C:\\Users\\Kovács '
   'Máté\\AppData\\Local\\Programs\\Python\\Python311\\Lib\\site-packages\\_pyinstaller_hooks_contrib\\hooks\\rthooks\\pyi_rth_pythoncom.py',
   'PYSOURCE'),
  ('pyi_rth_setuptools',
   'C:\\Users\\Kovács '
   'Máté\\AppData\\Local\\Programs\\Python\\Python311\\Lib\\site-packages\\PyInstaller\\hooks\\rthooks\\pyi_rth_setuptools.py',
   'PYSOURCE'),
  ('pyi_rth_pkgutil',
   'C:\\Users\\Kovács '
   'Máté\\AppData\\Local\\Programs\\Python\\Python311\\Lib\\site-packages\\PyInstaller\\hooks\\rthooks\\pyi_rth_pkgutil.py',
   'PYSOURCE'),
  ('main', 'C:\\prog\\python a gyakban\\projekt\\pycode\\main.py', 'PYSOURCE')],
 'python311.dll',
 True,
 False,
 False,
 [],
 None,
 None,
 None)
